EESchema Schematic File Version 2
LIBS:power
LIBS:device
LIBS:transistors
LIBS:conn
LIBS:linear
LIBS:regul
LIBS:74xx
LIBS:cmos4000
LIBS:adc-dac
LIBS:memory
LIBS:xilinx
LIBS:microcontrollers
LIBS:dsp
LIBS:microchip
LIBS:analog_switches
LIBS:motorola
LIBS:texas
LIBS:intel
LIBS:audio
LIBS:interface
LIBS:digital-audio
LIBS:philips
LIBS:display
LIBS:cypress
LIBS:siliconi
LIBS:opto
LIBS:atmel
LIBS:contrib
LIBS:valves
LIBS:w_connectors
LIBS:mylib
LIBS:DCDC-ACDC-Converter
LIBS:radio-muxer-cache
EELAYER 25 0
EELAYER END
$Descr A4 11693 8268
encoding utf-8
Sheet 4 11
Title "Radio Muxer"
Date "2016-01-25"
Rev "5"
Comp "distelco s.r.l."
Comment1 ""
Comment2 ""
Comment3 ""
Comment4 ""
$EndDescr
Text HLabel 6350 2500 2    60   Output ~ 0
AudioOut+
Text HLabel 6350 4500 2    60   Output ~ 0
AudioOut-
Text HLabel 3600 2400 0    60   Input ~ 0
Audio1In+
Text HLabel 3600 2500 0    60   Input ~ 0
Audio2In+
Text HLabel 3600 2600 0    60   Input ~ 0
Audio3In+
Text HLabel 3650 4400 0    60   Input ~ 0
Audio1In-
Text HLabel 3650 4500 0    60   Input ~ 0
Audio2In-
Text HLabel 3650 4600 0    60   Input ~ 0
Audio3In-
$Comp
L -5VA #PWR201
U 1 1 560D4E86
P 5150 1900
AR Path="/560D4C6E/560D4E86" Ref="#PWR201"  Part="1" 
AR Path="/560DF707/560D4E86" Ref="#PWR401"  Part="1" 
AR Path="/560F0ED9/560D4E86" Ref="#PWR501"  Part="1" 
AR Path="/560F0EDB/560D4E86" Ref="#PWR601"  Part="1" 
AR Path="/560F0EDA/560D4E86" Ref="#PWR701"  Part="1" 
F 0 "#PWR401" H 5150 2000 50  0001 C CNN
F 1 "-5VA" H 5150 2050 50  0000 C CNN
F 2 "" H 5150 1900 60  0000 C CNN
F 3 "" H 5150 1900 60  0000 C CNN
	1    5150 1900
	1    0    0    -1  
$EndComp
$Comp
L -5VA #PWR203
U 1 1 560D4E9C
P 5150 3950
AR Path="/560D4C6E/560D4E9C" Ref="#PWR203"  Part="1" 
AR Path="/560DF707/560D4E9C" Ref="#PWR403"  Part="1" 
AR Path="/560F0ED9/560D4E9C" Ref="#PWR503"  Part="1" 
AR Path="/560F0EDB/560D4E9C" Ref="#PWR603"  Part="1" 
AR Path="/560F0EDA/560D4E9C" Ref="#PWR703"  Part="1" 
F 0 "#PWR403" H 5150 4050 50  0001 C CNN
F 1 "-5VA" H 5150 4100 50  0000 C CNN
F 2 "" H 5150 3950 60  0000 C CNN
F 3 "" H 5150 3950 60  0000 C CNN
	1    5150 3950
	1    0    0    -1  
$EndComp
$Comp
L +5VA #PWR039
U 1 1 560D4EBE
P 5550 1900
AR Path="/560D4C6E/560D4EBE" Ref="#PWR039"  Part="1" 
AR Path="/560DF707/560D4EBE" Ref="#PWR055"  Part="1" 
AR Path="/560F0ED9/560D4EBE" Ref="#PWR057"  Part="1" 
AR Path="/560F0EDB/560D4EBE" Ref="#PWR059"  Part="1" 
AR Path="/560F0EDA/560D4EBE" Ref="#PWR061"  Part="1" 
F 0 "#PWR055" H 5550 1750 50  0001 C CNN
F 1 "+5VA" H 5550 2040 50  0000 C CNN
F 2 "" H 5550 1900 60  0000 C CNN
F 3 "" H 5550 1900 60  0000 C CNN
	1    5550 1900
	1    0    0    -1  
$EndComp
$Comp
L +5VA #PWR040
U 1 1 560D4EF2
P 5550 3950
AR Path="/560D4C6E/560D4EF2" Ref="#PWR040"  Part="1" 
AR Path="/560DF707/560D4EF2" Ref="#PWR056"  Part="1" 
AR Path="/560F0ED9/560D4EF2" Ref="#PWR058"  Part="1" 
AR Path="/560F0EDB/560D4EF2" Ref="#PWR060"  Part="1" 
AR Path="/560F0EDA/560D4EF2" Ref="#PWR062"  Part="1" 
F 0 "#PWR056" H 5550 3800 50  0001 C CNN
F 1 "+5VA" H 5550 4090 50  0000 C CNN
F 2 "" H 5550 3950 60  0000 C CNN
F 3 "" H 5550 3950 60  0000 C CNN
	1    5550 3950
	1    0    0    -1  
$EndComp
Text HLabel 3650 5600 0    60   Input ~ 0
EN
Text HLabel 3650 5700 0    60   Input ~ 0
A0
Text HLabel 3650 5800 0    60   Input ~ 0
A1
Wire Wire Line
	3650 5600 5300 5600
Wire Wire Line
	5300 5600 5300 5000
Wire Wire Line
	3650 5700 5500 5700
Wire Wire Line
	5500 5700 5500 5000
Wire Wire Line
	3650 5800 5600 5800
Wire Wire Line
	5600 5800 5600 5000
Wire Wire Line
	6000 4500 6350 4500
Wire Wire Line
	3650 4400 4700 4400
Wire Wire Line
	4700 4500 3650 4500
Wire Wire Line
	3650 4600 4700 4600
Wire Wire Line
	3600 2400 4700 2400
Wire Wire Line
	4700 2500 3600 2500
Wire Wire Line
	3600 2600 4700 2600
Wire Wire Line
	6000 2500 6350 2500
Wire Wire Line
	5300 3000 5300 3300
Wire Wire Line
	5300 3300 3900 3300
Wire Wire Line
	3900 3300 3900 5600
Connection ~ 3900 5600
Wire Wire Line
	5500 3000 5500 3400
Wire Wire Line
	5500 3400 4000 3400
Wire Wire Line
	4000 3400 4000 5700
Connection ~ 4000 5700
Wire Wire Line
	5600 3000 5600 3500
Wire Wire Line
	5600 3500 4100 3500
Wire Wire Line
	4100 3500 4100 5800
Connection ~ 4100 5800
Wire Wire Line
	5150 2100 5150 1900
Wire Wire Line
	5550 1900 5550 2100
Wire Wire Line
	5550 3950 5550 4100
Wire Wire Line
	5150 4100 5150 3950
$Comp
L MAX4518CDP U201
U 1 1 5613F62D
P 5350 2550
AR Path="/560D4C6E/5613F62D" Ref="U201"  Part="1" 
AR Path="/560DF707/5613F62D" Ref="U401"  Part="1" 
AR Path="/560F0ED9/5613F62D" Ref="U501"  Part="1" 
AR Path="/560F0EDB/5613F62D" Ref="U601"  Part="1" 
AR Path="/560F0EDA/5613F62D" Ref="U701"  Part="1" 
F 0 "U401" H 5350 2750 60  0000 C CNN
F 1 "MAX4518CDP" H 5450 2500 60  0000 C CNN
F 2 "Housings_DIP:DIP-14_W7.62mm" H 5350 2550 60  0001 C CNN
F 3 "" H 5350 2550 60  0000 C CNN
F 4 "333-262" H 5350 2550 60  0001 C CNN "RS code"
F 5 "3.17" H 5350 2550 60  0001 C CNN "RS price"
F 6 "MAX4518CPD+-ND" H 5350 2550 60  0001 C CNN "Digikey code"
	1    5350 2550
	1    0    0    -1  
$EndComp
$Comp
L MAX4518CDP U202
U 1 1 5613F684
P 5350 4550
AR Path="/560D4C6E/5613F684" Ref="U202"  Part="1" 
AR Path="/560DF707/5613F684" Ref="U402"  Part="1" 
AR Path="/560F0ED9/5613F684" Ref="U502"  Part="1" 
AR Path="/560F0EDB/5613F684" Ref="U602"  Part="1" 
AR Path="/560F0EDA/5613F684" Ref="U702"  Part="1" 
F 0 "U402" H 5350 4750 60  0000 C CNN
F 1 "MAX4518CDP" H 5450 4500 60  0000 C CNN
F 2 "Housings_DIP:DIP-14_W7.62mm" H 5350 4550 60  0001 C CNN
F 3 "" H 5350 4550 60  0000 C CNN
	1    5350 4550
	1    0    0    -1  
$EndComp
$Comp
L GND #PWR?
U 1 1 56A6669D
P 4500 2850
AR Path="/560D4C6E/56A6669D" Ref="#PWR?"  Part="1" 
AR Path="/560DF707/56A6669D" Ref="#PWR?"  Part="1" 
F 0 "#PWR?" H 4500 2600 50  0001 C CNN
F 1 "GND" H 4500 2700 50  0000 C CNN
F 2 "" H 4500 2850 60  0000 C CNN
F 3 "" H 4500 2850 60  0000 C CNN
	1    4500 2850
	1    0    0    -1  
$EndComp
Wire Wire Line
	4700 2700 4500 2700
Wire Wire Line
	4500 2700 4500 2850
$Comp
L GND #PWR?
U 1 1 56A66717
P 4500 4850
AR Path="/560D4C6E/56A66717" Ref="#PWR?"  Part="1" 
AR Path="/560DF707/56A66717" Ref="#PWR?"  Part="1" 
F 0 "#PWR?" H 4500 4600 50  0001 C CNN
F 1 "GND" H 4500 4700 50  0000 C CNN
F 2 "" H 4500 4850 60  0000 C CNN
F 3 "" H 4500 4850 60  0000 C CNN
	1    4500 4850
	1    0    0    -1  
$EndComp
Wire Wire Line
	4500 4700 4500 4850
Wire Wire Line
	4500 4700 4700 4700
$EndSCHEMATC
