EESchema Schematic File Version 2
LIBS:power
LIBS:device
LIBS:transistors
LIBS:conn
LIBS:linear
LIBS:regul
LIBS:74xx
LIBS:cmos4000
LIBS:adc-dac
LIBS:memory
LIBS:xilinx
LIBS:microcontrollers
LIBS:dsp
LIBS:microchip
LIBS:analog_switches
LIBS:motorola
LIBS:texas
LIBS:intel
LIBS:audio
LIBS:interface
LIBS:digital-audio
LIBS:philips
LIBS:display
LIBS:cypress
LIBS:siliconi
LIBS:opto
LIBS:atmel
LIBS:contrib
LIBS:valves
LIBS:w_connectors
LIBS:mylib
LIBS:DCDC-ACDC-Converter
LIBS:radio-muxer-cache
EELAYER 25 0
EELAYER END
$Descr A4 11693 8268
encoding utf-8
Sheet 10 11
Title "Radio Muxer"
Date "2016-01-25"
Rev "5"
Comp "distelco s.r.l."
Comment1 ""
Comment2 ""
Comment3 ""
Comment4 ""
$EndDescr
$Comp
L LM741 U801
U 1 1 5660695B
P 5500 2900
AR Path="/566063DF/5660695B" Ref="U801"  Part="1" 
AR Path="/5662164F/5660695B" Ref="U901"  Part="1" 
AR Path="/56621B51/5660695B" Ref="U1001"  Part="1" 
F 0 "U1001" H 5650 3050 60  0000 C CNN
F 1 "LM741" H 5650 3150 60  0000 C CNN
F 2 "Housings_DIP:DIP-8_W7.62mm" H 5500 2900 60  0001 C CNN
F 3 "" H 5500 2900 60  0000 C CNN
F 4 "296-12853-5-ND" H 5500 2900 60  0001 C CNN "Digikey code"
	1    5500 2900
	1    0    0    -1  
$EndComp
$Comp
L LM741 U802
U 1 1 566069C2
P 5500 4700
AR Path="/566063DF/566069C2" Ref="U802"  Part="1" 
AR Path="/5662164F/566069C2" Ref="U902"  Part="1" 
AR Path="/56621B51/566069C2" Ref="U1002"  Part="1" 
F 0 "U1002" H 5650 4850 60  0000 C CNN
F 1 "LM741" H 5650 4950 60  0000 C CNN
F 2 "Housings_DIP:DIP-8_W7.62mm" H 5500 4700 60  0001 C CNN
F 3 "" H 5500 4700 60  0000 C CNN
	1    5500 4700
	1    0    0    -1  
$EndComp
$Comp
L +5VA #PWR063
U 1 1 56607477
P 5400 2400
AR Path="/566063DF/56607477" Ref="#PWR063"  Part="1" 
AR Path="/5662164F/56607477" Ref="#PWR067"  Part="1" 
AR Path="/56621B51/56607477" Ref="#PWR071"  Part="1" 
F 0 "#PWR071" H 5400 2250 50  0001 C CNN
F 1 "+5VA" H 5400 2540 50  0000 C CNN
F 2 "" H 5400 2400 60  0000 C CNN
F 3 "" H 5400 2400 60  0000 C CNN
	1    5400 2400
	1    0    0    -1  
$EndComp
$Comp
L -5VA #PWR802
U 1 1 5660ED36
P 5400 3400
AR Path="/566063DF/5660ED36" Ref="#PWR802"  Part="1" 
AR Path="/5662164F/5660ED36" Ref="#PWR902"  Part="1" 
AR Path="/56621B51/5660ED36" Ref="#PWR1002"  Part="1" 
F 0 "#PWR1002" H 5400 3275 50  0001 C CNN
F 1 "-5VA" H 5400 3550 50  0000 C CNN
F 2 "" H 5400 3400 60  0000 C CNN
F 3 "" H 5400 3400 60  0000 C CNN
	1    5400 3400
	-1   0    0    1   
$EndComp
Wire Wire Line
	5400 3400 5400 3300
Wire Wire Line
	5400 2500 5400 2400
Wire Wire Line
	6000 2900 7100 2900
Wire Wire Line
	6400 2900 6400 3650
Wire Wire Line
	6400 3650 4750 3650
Wire Wire Line
	4750 3650 4750 3000
Wire Wire Line
	4750 3000 5000 3000
$Comp
L +5VA #PWR064
U 1 1 5660EE33
P 5400 4200
AR Path="/566063DF/5660EE33" Ref="#PWR064"  Part="1" 
AR Path="/5662164F/5660EE33" Ref="#PWR068"  Part="1" 
AR Path="/56621B51/5660EE33" Ref="#PWR072"  Part="1" 
F 0 "#PWR072" H 5400 4050 50  0001 C CNN
F 1 "+5VA" H 5400 4340 50  0000 C CNN
F 2 "" H 5400 4200 60  0000 C CNN
F 3 "" H 5400 4200 60  0000 C CNN
	1    5400 4200
	1    0    0    -1  
$EndComp
$Comp
L -5VA #PWR805
U 1 1 5660EE61
P 5400 5200
AR Path="/566063DF/5660EE61" Ref="#PWR805"  Part="1" 
AR Path="/5662164F/5660EE61" Ref="#PWR905"  Part="1" 
AR Path="/56621B51/5660EE61" Ref="#PWR1005"  Part="1" 
F 0 "#PWR1005" H 5400 5075 50  0001 C CNN
F 1 "-5VA" H 5400 5350 50  0000 C CNN
F 2 "" H 5400 5200 60  0000 C CNN
F 3 "" H 5400 5200 60  0000 C CNN
	1    5400 5200
	-1   0    0    1   
$EndComp
Wire Wire Line
	5400 5200 5400 5100
Wire Wire Line
	5400 4200 5400 4300
Wire Wire Line
	6000 4700 7100 4700
Wire Wire Line
	6400 4700 6400 5550
Wire Wire Line
	6400 5550 4750 5550
Wire Wire Line
	4750 5550 4750 4800
Wire Wire Line
	4750 4800 5000 4800
Text HLabel 3850 2800 0    60   Input ~ 0
In+
Text HLabel 3850 4600 0    60   Input ~ 0
In-
Text HLabel 7100 4700 2    60   Output ~ 0
Out-
Text HLabel 7100 2900 2    60   Output ~ 0
Out+
Connection ~ 6400 4700
Connection ~ 6400 2900
NoConn ~ 5500 3300
NoConn ~ 5600 3300
NoConn ~ 5500 5100
NoConn ~ 5600 5100
$Comp
L R R801
U 1 1 56A20DF8
P 4450 3250
AR Path="/566063DF/56A20DF8" Ref="R801"  Part="1" 
AR Path="/5662164F/56A20DF8" Ref="R901"  Part="1" 
AR Path="/56621B51/56A20DF8" Ref="R1001"  Part="1" 
F 0 "R1001" V 4530 3250 50  0000 C CNN
F 1 "R" V 4450 3250 50  0000 C CNN
F 2 "Resistors_ThroughHole:Resistor_Horizontal_RM10mm" V 4380 3250 30  0001 C CNN
F 3 "" H 4450 3250 30  0000 C CNN
	1    4450 3250
	1    0    0    -1  
$EndComp
$Comp
L C C801
U 1 1 56A20E73
P 4150 2800
AR Path="/566063DF/56A20E73" Ref="C801"  Part="1" 
AR Path="/5662164F/56A20E73" Ref="C901"  Part="1" 
AR Path="/56621B51/56A20E73" Ref="C1001"  Part="1" 
F 0 "C1001" H 4175 2900 50  0000 L CNN
F 1 "10u" H 4175 2700 50  0000 L CNN
F 2 "w_capacitors:cnp_7x4.5mm" H 4188 2650 30  0001 C CNN
F 3 "" H 4150 2800 60  0000 C CNN
	1    4150 2800
	0    1    1    0   
$EndComp
Wire Wire Line
	3850 2800 4000 2800
Wire Wire Line
	4300 2800 5000 2800
Wire Wire Line
	4450 3100 4450 2800
Connection ~ 4450 2800
Wire Wire Line
	4450 3400 4450 3650
$Comp
L GND #PWR065
U 1 1 56A20FC2
P 4450 3650
AR Path="/566063DF/56A20FC2" Ref="#PWR065"  Part="1" 
AR Path="/5662164F/56A20FC2" Ref="#PWR069"  Part="1" 
AR Path="/56621B51/56A20FC2" Ref="#PWR073"  Part="1" 
F 0 "#PWR073" H 4450 3400 50  0001 C CNN
F 1 "GND" H 4450 3500 50  0000 C CNN
F 2 "" H 4450 3650 60  0000 C CNN
F 3 "" H 4450 3650 60  0000 C CNN
	1    4450 3650
	1    0    0    -1  
$EndComp
$Comp
L R R902
U 1 1 56A211A4
P 4450 5050
AR Path="/5662164F/56A211A4" Ref="R902"  Part="1" 
AR Path="/566063DF/56A211A4" Ref="R802"  Part="1" 
AR Path="/56621B51/56A211A4" Ref="R1002"  Part="1" 
F 0 "R1002" V 4530 5050 50  0000 C CNN
F 1 "R" V 4450 5050 50  0000 C CNN
F 2 "Resistors_ThroughHole:Resistor_Horizontal_RM10mm" V 4380 5050 30  0001 C CNN
F 3 "" H 4450 5050 30  0000 C CNN
	1    4450 5050
	1    0    0    -1  
$EndComp
$Comp
L C C902
U 1 1 56A211AA
P 4150 4600
AR Path="/5662164F/56A211AA" Ref="C902"  Part="1" 
AR Path="/566063DF/56A211AA" Ref="C802"  Part="1" 
AR Path="/56621B51/56A211AA" Ref="C1002"  Part="1" 
F 0 "C1002" H 4175 4700 50  0000 L CNN
F 1 "10u" H 4175 4500 50  0000 L CNN
F 2 "w_capacitors:cnp_7x4.5mm" H 4188 4450 30  0001 C CNN
F 3 "" H 4150 4600 60  0000 C CNN
	1    4150 4600
	0    1    1    0   
$EndComp
Wire Wire Line
	3850 4600 4000 4600
Wire Wire Line
	4300 4600 5000 4600
Wire Wire Line
	4450 4900 4450 4600
Connection ~ 4450 4600
Wire Wire Line
	4450 5200 4450 5450
$Comp
L GND #PWR070
U 1 1 56A211B5
P 4450 5450
AR Path="/5662164F/56A211B5" Ref="#PWR070"  Part="1" 
AR Path="/566063DF/56A211B5" Ref="#PWR066"  Part="1" 
AR Path="/56621B51/56A211B5" Ref="#PWR074"  Part="1" 
F 0 "#PWR074" H 4450 5200 50  0001 C CNN
F 1 "GND" H 4450 5300 50  0000 C CNN
F 2 "" H 4450 5450 60  0000 C CNN
F 3 "" H 4450 5450 60  0000 C CNN
	1    4450 5450
	1    0    0    -1  
$EndComp
$EndSCHEMATC
