EESchema Schematic File Version 2
LIBS:power
LIBS:device
LIBS:transistors
LIBS:conn
LIBS:linear
LIBS:regul
LIBS:74xx
LIBS:cmos4000
LIBS:adc-dac
LIBS:memory
LIBS:xilinx
LIBS:microcontrollers
LIBS:dsp
LIBS:microchip
LIBS:analog_switches
LIBS:motorola
LIBS:texas
LIBS:intel
LIBS:audio
LIBS:interface
LIBS:digital-audio
LIBS:philips
LIBS:display
LIBS:cypress
LIBS:siliconi
LIBS:opto
LIBS:atmel
LIBS:contrib
LIBS:valves
LIBS:w_connectors
LIBS:mylib
LIBS:DCDC-ACDC-Converter
LIBS:radio-muxer-cache
EELAYER 25 0
EELAYER END
$Descr A4 11693 8268
encoding utf-8
Sheet 11 11
Title ""
Date "2016-01-25"
Rev "5"
Comp ""
Comment1 ""
Comment2 ""
Comment3 ""
Comment4 ""
$EndDescr
$Comp
L C C1101
U 1 1 56A22894
P 3000 2500
F 0 "C1101" H 3025 2600 50  0000 L CNN
F 1 "0.1u" H 3025 2400 50  0000 L CNN
F 2 "w_capacitors:cnp_3mm_disc" H 3038 2350 30  0001 C CNN
F 3 "" H 3000 2500 60  0000 C CNN
	1    3000 2500
	1    0    0    -1  
$EndComp
$Comp
L C C1117
U 1 1 56A2289B
P 3000 3850
F 0 "C1117" H 3025 3950 50  0000 L CNN
F 1 "0.1u" H 3025 3750 50  0000 L CNN
F 2 "w_capacitors:cnp_3mm_disc" H 3038 3700 30  0001 C CNN
F 3 "" H 3000 3850 60  0000 C CNN
	1    3000 3850
	1    0    0    -1  
$EndComp
$Comp
L +5VA #PWR075
U 1 1 56A228A2
P 3000 2200
F 0 "#PWR075" H 3000 2050 50  0001 C CNN
F 1 "+5VA" H 3000 2340 50  0000 C CNN
F 2 "" H 3000 2200 60  0000 C CNN
F 3 "" H 3000 2200 60  0000 C CNN
	1    3000 2200
	1    0    0    -1  
$EndComp
$Comp
L -5VA #PWR1103
U 1 1 56A228A9
P 3000 3550
F 0 "#PWR1103" H 3000 3650 50  0001 C CNN
F 1 "-5VA" H 3000 3700 50  0000 C CNN
F 2 "" H 3000 3550 60  0000 C CNN
F 3 "" H 3000 3550 60  0000 C CNN
	1    3000 3550
	1    0    0    -1  
$EndComp
$Comp
L GND #PWR076
U 1 1 56A228B6
P 3000 2800
F 0 "#PWR076" H 3000 2550 50  0001 C CNN
F 1 "GND" H 3000 2650 50  0000 C CNN
F 2 "" H 3000 2800 60  0000 C CNN
F 3 "" H 3000 2800 60  0000 C CNN
	1    3000 2800
	1    0    0    -1  
$EndComp
$Comp
L C C1102
U 1 1 56A2349F
P 3300 2500
F 0 "C1102" H 3325 2600 50  0000 L CNN
F 1 "0.1u" H 3325 2400 50  0000 L CNN
F 2 "w_capacitors:cnp_3mm_disc" H 3338 2350 30  0001 C CNN
F 3 "" H 3300 2500 60  0000 C CNN
	1    3300 2500
	1    0    0    -1  
$EndComp
$Comp
L C C1103
U 1 1 56A234C0
P 3600 2500
F 0 "C1103" H 3625 2600 50  0000 L CNN
F 1 "0.1u" H 3625 2400 50  0000 L CNN
F 2 "w_capacitors:cnp_3mm_disc" H 3638 2350 30  0001 C CNN
F 3 "" H 3600 2500 60  0000 C CNN
	1    3600 2500
	1    0    0    -1  
$EndComp
$Comp
L C C1104
U 1 1 56A2351E
P 3900 2500
F 0 "C1104" H 3925 2600 50  0000 L CNN
F 1 "0.1u" H 3925 2400 50  0000 L CNN
F 2 "w_capacitors:cnp_3mm_disc" H 3938 2350 30  0001 C CNN
F 3 "" H 3900 2500 60  0000 C CNN
	1    3900 2500
	1    0    0    -1  
$EndComp
$Comp
L C C1105
U 1 1 56A23545
P 4200 2500
F 0 "C1105" H 4225 2600 50  0000 L CNN
F 1 "0.1u" H 4225 2400 50  0000 L CNN
F 2 "w_capacitors:cnp_3mm_disc" H 4238 2350 30  0001 C CNN
F 3 "" H 4200 2500 60  0000 C CNN
	1    4200 2500
	1    0    0    -1  
$EndComp
$Comp
L C C1106
U 1 1 56A2356F
P 4500 2500
F 0 "C1106" H 4525 2600 50  0000 L CNN
F 1 "0.1u" H 4525 2400 50  0000 L CNN
F 2 "w_capacitors:cnp_3mm_disc" H 4538 2350 30  0001 C CNN
F 3 "" H 4500 2500 60  0000 C CNN
	1    4500 2500
	1    0    0    -1  
$EndComp
$Comp
L C C1107
U 1 1 56A2359C
P 4800 2500
F 0 "C1107" H 4825 2600 50  0000 L CNN
F 1 "0.1u" H 4825 2400 50  0000 L CNN
F 2 "w_capacitors:cnp_3mm_disc" H 4838 2350 30  0001 C CNN
F 3 "" H 4800 2500 60  0000 C CNN
	1    4800 2500
	1    0    0    -1  
$EndComp
$Comp
L C C1108
U 1 1 56A235CC
P 5100 2500
F 0 "C1108" H 5125 2600 50  0000 L CNN
F 1 "0.1u" H 5125 2400 50  0000 L CNN
F 2 "w_capacitors:cnp_3mm_disc" H 5138 2350 30  0001 C CNN
F 3 "" H 5100 2500 60  0000 C CNN
	1    5100 2500
	1    0    0    -1  
$EndComp
$Comp
L C C1109
U 1 1 56A23603
P 5400 2500
F 0 "C1109" H 5425 2600 50  0000 L CNN
F 1 "0.1u" H 5425 2400 50  0000 L CNN
F 2 "w_capacitors:cnp_3mm_disc" H 5438 2350 30  0001 C CNN
F 3 "" H 5400 2500 60  0000 C CNN
	1    5400 2500
	1    0    0    -1  
$EndComp
$Comp
L C C1110
U 1 1 56A2363D
P 5700 2500
F 0 "C1110" H 5725 2600 50  0000 L CNN
F 1 "0.1u" H 5725 2400 50  0000 L CNN
F 2 "w_capacitors:cnp_3mm_disc" H 5738 2350 30  0001 C CNN
F 3 "" H 5700 2500 60  0000 C CNN
	1    5700 2500
	1    0    0    -1  
$EndComp
$Comp
L C C1111
U 1 1 56A23865
P 6000 2500
F 0 "C1111" H 6025 2600 50  0000 L CNN
F 1 "0.1u" H 6025 2400 50  0000 L CNN
F 2 "w_capacitors:cnp_3mm_disc" H 6038 2350 30  0001 C CNN
F 3 "" H 6000 2500 60  0000 C CNN
	1    6000 2500
	1    0    0    -1  
$EndComp
$Comp
L C C1112
U 1 1 56A238A5
P 6300 2500
F 0 "C1112" H 6325 2600 50  0000 L CNN
F 1 "0.1u" H 6325 2400 50  0000 L CNN
F 2 "w_capacitors:cnp_3mm_disc" H 6338 2350 30  0001 C CNN
F 3 "" H 6300 2500 60  0000 C CNN
	1    6300 2500
	1    0    0    -1  
$EndComp
$Comp
L C C1113
U 1 1 56A238E4
P 6600 2500
F 0 "C1113" H 6625 2600 50  0000 L CNN
F 1 "0.1u" H 6625 2400 50  0000 L CNN
F 2 "w_capacitors:cnp_3mm_disc" H 6638 2350 30  0001 C CNN
F 3 "" H 6600 2500 60  0000 C CNN
	1    6600 2500
	1    0    0    -1  
$EndComp
Wire Wire Line
	3000 2200 3000 2350
Wire Wire Line
	3000 3700 3000 3550
Wire Wire Line
	3000 2650 3000 2800
Wire Wire Line
	3000 4000 3000 4150
Wire Wire Line
	6600 2750 6600 2650
Wire Wire Line
	3000 2750 7500 2750
Connection ~ 3000 2750
Wire Wire Line
	6600 2250 6600 2350
Wire Wire Line
	3000 2250 7500 2250
Connection ~ 3000 2250
Wire Wire Line
	3300 2350 3300 2250
Connection ~ 3300 2250
Wire Wire Line
	3600 2350 3600 2250
Connection ~ 3600 2250
Wire Wire Line
	3900 2350 3900 2250
Connection ~ 3900 2250
Wire Wire Line
	4200 2350 4200 2250
Connection ~ 4200 2250
Wire Wire Line
	4500 2350 4500 2250
Connection ~ 4500 2250
Wire Wire Line
	4800 2350 4800 2250
Connection ~ 4800 2250
Wire Wire Line
	5100 2350 5100 2250
Connection ~ 5100 2250
Wire Wire Line
	5400 2350 5400 2250
Connection ~ 5400 2250
Wire Wire Line
	5700 2350 5700 2250
Connection ~ 5700 2250
Wire Wire Line
	6000 2350 6000 2250
Connection ~ 6000 2250
Wire Wire Line
	6300 2350 6300 2250
Connection ~ 6300 2250
Wire Wire Line
	6300 2650 6300 2750
Connection ~ 6300 2750
Wire Wire Line
	6000 2650 6000 2750
Connection ~ 6000 2750
Wire Wire Line
	5700 2650 5700 2750
Connection ~ 5700 2750
Wire Wire Line
	5400 2650 5400 2750
Connection ~ 5400 2750
Wire Wire Line
	5100 2650 5100 2750
Connection ~ 5100 2750
Wire Wire Line
	4800 2650 4800 2750
Connection ~ 4800 2750
Wire Wire Line
	4500 2650 4500 2750
Connection ~ 4500 2750
Wire Wire Line
	4200 2650 4200 2750
Connection ~ 4200 2750
Wire Wire Line
	3900 2650 3900 2750
Connection ~ 3900 2750
Wire Wire Line
	3600 2650 3600 2750
Connection ~ 3600 2750
Wire Wire Line
	3300 2650 3300 2750
Connection ~ 3300 2750
$Comp
L C C1118
U 1 1 56A2433A
P 3300 3850
F 0 "C1118" H 3325 3950 50  0000 L CNN
F 1 "0.1u" H 3325 3750 50  0000 L CNN
F 2 "w_capacitors:cnp_3mm_disc" H 3338 3700 30  0001 C CNN
F 3 "" H 3300 3850 60  0000 C CNN
	1    3300 3850
	1    0    0    -1  
$EndComp
$Comp
L C C1119
U 1 1 56A24340
P 3600 3850
F 0 "C1119" H 3625 3950 50  0000 L CNN
F 1 "0.1u" H 3625 3750 50  0000 L CNN
F 2 "w_capacitors:cnp_3mm_disc" H 3638 3700 30  0001 C CNN
F 3 "" H 3600 3850 60  0000 C CNN
	1    3600 3850
	1    0    0    -1  
$EndComp
$Comp
L C C1120
U 1 1 56A24346
P 3900 3850
F 0 "C1120" H 3925 3950 50  0000 L CNN
F 1 "0.1u" H 3925 3750 50  0000 L CNN
F 2 "w_capacitors:cnp_3mm_disc" H 3938 3700 30  0001 C CNN
F 3 "" H 3900 3850 60  0000 C CNN
	1    3900 3850
	1    0    0    -1  
$EndComp
$Comp
L C C1121
U 1 1 56A2434C
P 4200 3850
F 0 "C1121" H 4225 3950 50  0000 L CNN
F 1 "0.1u" H 4225 3750 50  0000 L CNN
F 2 "w_capacitors:cnp_3mm_disc" H 4238 3700 30  0001 C CNN
F 3 "" H 4200 3850 60  0000 C CNN
	1    4200 3850
	1    0    0    -1  
$EndComp
$Comp
L C C1122
U 1 1 56A24352
P 4500 3850
F 0 "C1122" H 4525 3950 50  0000 L CNN
F 1 "0.1u" H 4525 3750 50  0000 L CNN
F 2 "w_capacitors:cnp_3mm_disc" H 4538 3700 30  0001 C CNN
F 3 "" H 4500 3850 60  0000 C CNN
	1    4500 3850
	1    0    0    -1  
$EndComp
$Comp
L C C1123
U 1 1 56A24358
P 4800 3850
F 0 "C1123" H 4825 3950 50  0000 L CNN
F 1 "0.1u" H 4825 3750 50  0000 L CNN
F 2 "w_capacitors:cnp_3mm_disc" H 4838 3700 30  0001 C CNN
F 3 "" H 4800 3850 60  0000 C CNN
	1    4800 3850
	1    0    0    -1  
$EndComp
$Comp
L C C1124
U 1 1 56A2435E
P 5100 3850
F 0 "C1124" H 5125 3950 50  0000 L CNN
F 1 "0.1u" H 5125 3750 50  0000 L CNN
F 2 "w_capacitors:cnp_3mm_disc" H 5138 3700 30  0001 C CNN
F 3 "" H 5100 3850 60  0000 C CNN
	1    5100 3850
	1    0    0    -1  
$EndComp
$Comp
L C C1125
U 1 1 56A24364
P 5400 3850
F 0 "C1125" H 5425 3950 50  0000 L CNN
F 1 "0.1u" H 5425 3750 50  0000 L CNN
F 2 "w_capacitors:cnp_3mm_disc" H 5438 3700 30  0001 C CNN
F 3 "" H 5400 3850 60  0000 C CNN
	1    5400 3850
	1    0    0    -1  
$EndComp
$Comp
L C C1126
U 1 1 56A2436A
P 5700 3850
F 0 "C1126" H 5725 3950 50  0000 L CNN
F 1 "0.1u" H 5725 3750 50  0000 L CNN
F 2 "w_capacitors:cnp_3mm_disc" H 5738 3700 30  0001 C CNN
F 3 "" H 5700 3850 60  0000 C CNN
	1    5700 3850
	1    0    0    -1  
$EndComp
$Comp
L C C1127
U 1 1 56A24370
P 6000 3850
F 0 "C1127" H 6025 3950 50  0000 L CNN
F 1 "0.1u" H 6025 3750 50  0000 L CNN
F 2 "w_capacitors:cnp_3mm_disc" H 6038 3700 30  0001 C CNN
F 3 "" H 6000 3850 60  0000 C CNN
	1    6000 3850
	1    0    0    -1  
$EndComp
$Comp
L C C1128
U 1 1 56A24376
P 6300 3850
F 0 "C1128" H 6325 3950 50  0000 L CNN
F 1 "0.1u" H 6325 3750 50  0000 L CNN
F 2 "w_capacitors:cnp_3mm_disc" H 6338 3700 30  0001 C CNN
F 3 "" H 6300 3850 60  0000 C CNN
	1    6300 3850
	1    0    0    -1  
$EndComp
$Comp
L C C1129
U 1 1 56A2437C
P 6600 3850
F 0 "C1129" H 6625 3950 50  0000 L CNN
F 1 "0.1u" H 6625 3750 50  0000 L CNN
F 2 "w_capacitors:cnp_3mm_disc" H 6638 3700 30  0001 C CNN
F 3 "" H 6600 3850 60  0000 C CNN
	1    6600 3850
	1    0    0    -1  
$EndComp
Wire Wire Line
	6600 4100 6600 4000
Wire Wire Line
	6600 3600 6600 3700
Wire Wire Line
	3000 3600 7500 3600
Wire Wire Line
	3300 3700 3300 3600
Connection ~ 3300 3600
Wire Wire Line
	3600 3700 3600 3600
Connection ~ 3600 3600
Wire Wire Line
	3900 3700 3900 3600
Connection ~ 3900 3600
Wire Wire Line
	4200 3700 4200 3600
Connection ~ 4200 3600
Wire Wire Line
	4500 3700 4500 3600
Connection ~ 4500 3600
Wire Wire Line
	4800 3700 4800 3600
Connection ~ 4800 3600
Wire Wire Line
	5100 3700 5100 3600
Connection ~ 5100 3600
Wire Wire Line
	5400 3700 5400 3600
Connection ~ 5400 3600
Wire Wire Line
	5700 3700 5700 3600
Connection ~ 5700 3600
Wire Wire Line
	6000 3700 6000 3600
Connection ~ 6000 3600
Wire Wire Line
	6300 3700 6300 3600
Connection ~ 6300 3600
Wire Wire Line
	6300 4100 6300 4000
Connection ~ 6300 4100
Wire Wire Line
	6000 4100 6000 4000
Connection ~ 6000 4100
Wire Wire Line
	5700 4100 5700 4000
Connection ~ 5700 4100
Wire Wire Line
	5400 4100 5400 4000
Connection ~ 5400 4100
Wire Wire Line
	5100 4100 5100 4000
Connection ~ 5100 4100
Wire Wire Line
	4800 4100 4800 4000
Connection ~ 4800 4100
Wire Wire Line
	4500 4100 4500 4000
Connection ~ 4500 4100
Wire Wire Line
	4200 4100 4200 4000
Connection ~ 4200 4100
Wire Wire Line
	3900 4100 3900 4000
Connection ~ 3900 4100
Wire Wire Line
	3600 4100 3600 4000
Connection ~ 3600 4100
Wire Wire Line
	3300 4100 3300 4000
Connection ~ 3300 4100
$Comp
L GND #PWR077
U 1 1 56A228B0
P 3000 4150
F 0 "#PWR077" H 3000 3900 50  0001 C CNN
F 1 "GND" H 3000 4000 50  0000 C CNN
F 2 "" H 3000 4150 60  0000 C CNN
F 3 "" H 3000 4150 60  0000 C CNN
	1    3000 4150
	1    0    0    -1  
$EndComp
Connection ~ 3000 4100
Wire Wire Line
	3000 4100 7500 4100
$Comp
L C C1114
U 1 1 56A262AA
P 6900 2500
F 0 "C1114" H 6925 2600 50  0000 L CNN
F 1 "0.1u" H 6925 2400 50  0000 L CNN
F 2 "w_capacitors:cnp_3mm_disc" H 6938 2350 30  0001 C CNN
F 3 "" H 6900 2500 60  0000 C CNN
	1    6900 2500
	1    0    0    -1  
$EndComp
$Comp
L C C1115
U 1 1 56A26317
P 7200 2500
F 0 "C1115" H 7225 2600 50  0000 L CNN
F 1 "0.1u" H 7225 2400 50  0000 L CNN
F 2 "w_capacitors:cnp_3mm_disc" H 7238 2350 30  0001 C CNN
F 3 "" H 7200 2500 60  0000 C CNN
	1    7200 2500
	1    0    0    -1  
$EndComp
$Comp
L C C1116
U 1 1 56A26383
P 7500 2500
F 0 "C1116" H 7525 2600 50  0000 L CNN
F 1 "0.1u" H 7525 2400 50  0000 L CNN
F 2 "w_capacitors:cnp_3mm_disc" H 7538 2350 30  0001 C CNN
F 3 "" H 7500 2500 60  0000 C CNN
	1    7500 2500
	1    0    0    -1  
$EndComp
Wire Wire Line
	7500 2250 7500 2350
Connection ~ 6600 2250
Wire Wire Line
	7500 2750 7500 2650
Connection ~ 6600 2750
Wire Wire Line
	6900 2650 6900 2750
Connection ~ 6900 2750
Wire Wire Line
	7200 2650 7200 2750
Connection ~ 7200 2750
Wire Wire Line
	7200 2350 7200 2250
Connection ~ 7200 2250
Wire Wire Line
	6900 2350 6900 2250
Connection ~ 6900 2250
$Comp
L C C1130
U 1 1 56A26803
P 6900 3850
F 0 "C1130" H 6925 3950 50  0000 L CNN
F 1 "0.1u" H 6925 3750 50  0000 L CNN
F 2 "w_capacitors:cnp_3mm_disc" H 6938 3700 30  0001 C CNN
F 3 "" H 6900 3850 60  0000 C CNN
	1    6900 3850
	1    0    0    -1  
$EndComp
$Comp
L C C1131
U 1 1 56A26809
P 7200 3850
F 0 "C1131" H 7225 3950 50  0000 L CNN
F 1 "0.1u" H 7225 3750 50  0000 L CNN
F 2 "w_capacitors:cnp_3mm_disc" H 7238 3700 30  0001 C CNN
F 3 "" H 7200 3850 60  0000 C CNN
	1    7200 3850
	1    0    0    -1  
$EndComp
$Comp
L C C1132
U 1 1 56A2680F
P 7500 3850
F 0 "C1132" H 7525 3950 50  0000 L CNN
F 1 "0.1u" H 7525 3750 50  0000 L CNN
F 2 "w_capacitors:cnp_3mm_disc" H 7538 3700 30  0001 C CNN
F 3 "" H 7500 3850 60  0000 C CNN
	1    7500 3850
	1    0    0    -1  
$EndComp
Wire Wire Line
	7500 3600 7500 3700
Wire Wire Line
	7200 3700 7200 3600
Connection ~ 6600 3600
Wire Wire Line
	6900 3700 6900 3600
Connection ~ 6900 3600
Wire Wire Line
	7500 4100 7500 4000
Connection ~ 6600 4100
Wire Wire Line
	7200 4000 7200 4100
Connection ~ 7200 4100
Wire Wire Line
	6900 4000 6900 4100
Connection ~ 6900 4100
Connection ~ 3000 3600
Connection ~ 7200 3600
$EndSCHEMATC
