EESchema Schematic File Version 2
LIBS:power
LIBS:device
LIBS:transistors
LIBS:conn
LIBS:linear
LIBS:regul
LIBS:74xx
LIBS:cmos4000
LIBS:adc-dac
LIBS:memory
LIBS:xilinx
LIBS:microcontrollers
LIBS:dsp
LIBS:microchip
LIBS:analog_switches
LIBS:motorola
LIBS:texas
LIBS:intel
LIBS:audio
LIBS:interface
LIBS:digital-audio
LIBS:philips
LIBS:display
LIBS:cypress
LIBS:siliconi
LIBS:opto
LIBS:atmel
LIBS:contrib
LIBS:valves
LIBS:w_connectors
LIBS:mylib
LIBS:DCDC-ACDC-Converter
LIBS:radio-muxer-cache
EELAYER 25 0
EELAYER END
$Descr A4 11693 8268
encoding utf-8
Sheet 3 11
Title "Radio Muxer"
Date "2016-01-25"
Rev "5"
Comp "distelco s.r.l."
Comment1 ""
Comment2 ""
Comment3 ""
Comment4 ""
$EndDescr
$Comp
L GND #PWR041
U 1 1 560469C4
P 4350 6200
F 0 "#PWR041" H 4350 5950 50  0001 C CNN
F 1 "GND" H 4350 6050 50  0000 C CNN
F 2 "" H 4350 6200 60  0000 C CNN
F 3 "" H 4350 6200 60  0000 C CNN
	1    4350 6200
	1    0    0    -1  
$EndComp
Wire Wire Line
	4200 1500 4200 1950
Wire Wire Line
	4500 1700 4500 1950
Connection ~ 4200 1700
Wire Wire Line
	4350 6200 4350 6100
Wire Wire Line
	4300 6100 4400 6100
Wire Wire Line
	4300 6100 4300 5950
Wire Wire Line
	4400 6100 4400 5950
Connection ~ 4350 6100
$Comp
L CONN_02X03 P1201
U 1 1 56046D8E
P 8800 2100
F 0 "P1201" H 8800 2300 50  0000 C CNN
F 1 "ICSP" H 8800 1900 50  0000 C CNN
F 2 "Pin_Headers:Pin_Header_Straight_2x03" H 8800 900 60  0001 C CNN
F 3 "" H 8800 900 60  0000 C CNN
	1    8800 2100
	1    0    0    -1  
$EndComp
Wire Wire Line
	5350 3650 5700 3650
Wire Wire Line
	5350 3750 5700 3750
Wire Wire Line
	5350 3850 5700 3850
$Comp
L +5VD #PWR042
U 1 1 56047092
P 4200 1500
F 0 "#PWR042" H 4200 1350 50  0001 C CNN
F 1 "+5VD" H 4200 1640 50  0000 C CNN
F 2 "" H 4200 1500 60  0000 C CNN
F 3 "" H 4200 1500 60  0000 C CNN
	1    4200 1500
	1    0    0    -1  
$EndComp
Text Label 5450 3650 0    60   ~ 0
MOSI
Text Label 5450 3750 0    60   ~ 0
MISO
Text Label 5450 3850 0    60   ~ 0
SCK
Wire Wire Line
	8550 2000 8100 2000
Wire Wire Line
	8550 2100 8100 2100
Wire Wire Line
	8550 2200 8100 2200
Wire Wire Line
	9050 2000 9500 2000
Wire Wire Line
	9050 2100 9500 2100
$Comp
L GND #PWR043
U 1 1 56047239
P 9500 2350
F 0 "#PWR043" H 9500 2100 50  0001 C CNN
F 1 "GND" H 9500 2200 50  0000 C CNN
F 2 "" H 9500 2350 60  0000 C CNN
F 3 "" H 9500 2350 60  0000 C CNN
	1    9500 2350
	1    0    0    -1  
$EndComp
Wire Wire Line
	9500 2200 9500 2350
$Comp
L +5VD #PWR044
U 1 1 56047271
P 9500 1800
F 0 "#PWR044" H 9500 1650 50  0001 C CNN
F 1 "+5VD" H 9500 1940 50  0000 C CNN
F 2 "" H 9500 1800 60  0000 C CNN
F 3 "" H 9500 1800 60  0000 C CNN
	1    9500 1800
	1    0    0    -1  
$EndComp
Wire Wire Line
	9500 2000 9500 1800
Text Label 9150 2100 0    60   ~ 0
MOSI
Text Label 8250 2000 0    60   ~ 0
MISO
Text Label 8250 2100 0    60   ~ 0
SCK
Text Label 8250 2200 0    60   ~ 0
RESET
Wire Wire Line
	2950 2250 3350 2250
$Comp
L SW_PUSH SW1201
U 1 1 56047437
P 9050 5200
F 0 "SW1201" H 9200 5310 50  0000 C CNN
F 1 "RESET" H 9050 5120 50  0000 C CNN
F 2 "c_modules:RACON_12" H 9050 5200 60  0001 C CNN
F 3 "" H 9050 5200 60  0000 C CNN
	1    9050 5200
	0    1    1    0   
$EndComp
$Comp
L GND #PWR045
U 1 1 56047563
P 9050 5800
F 0 "#PWR045" H 9050 5550 50  0001 C CNN
F 1 "GND" H 9050 5650 50  0000 C CNN
F 2 "" H 9050 5800 60  0000 C CNN
F 3 "" H 9050 5800 60  0000 C CNN
	1    9050 5800
	1    0    0    -1  
$EndComp
Wire Wire Line
	9050 5500 9050 5800
Text Label 3050 2250 0    60   ~ 0
RESET
Text HLabel 5700 4250 2    60   Input ~ 0
T1_RX
Text HLabel 5700 4350 2    60   Input ~ 0
T2_RX
Text HLabel 5700 4450 2    60   Input ~ 0
T3_RX
Text HLabel 5700 4150 2    60   Input ~ 0
E1_RX
Text HLabel 5700 4050 2    60   Input ~ 0
E2_RX
Text HLabel 5700 3150 2    60   Output ~ 0
T1_TX
Text HLabel 5700 3250 2    60   Output ~ 0
T2_TX
Text HLabel 5700 3350 2    60   Output ~ 0
T3_TX
Text HLabel 5700 3450 2    60   Output ~ 0
E1_TX
Text HLabel 5700 3550 2    60   Output ~ 0
E2_TX
Text HLabel 5700 4750 2    60   Input ~ 0
PTT
Wire Wire Line
	5350 4050 5700 4050
Wire Wire Line
	5350 4150 5700 4150
Wire Wire Line
	5350 4250 5700 4250
Wire Wire Line
	5350 4350 5700 4350
Wire Wire Line
	5350 4450 5700 4450
Wire Wire Line
	5350 4750 5700 4750
NoConn ~ 3350 3450
NoConn ~ 3350 3050
NoConn ~ 3350 2650
$Comp
L CONN_01X03 P1202
U 1 1 560F1F71
P 7000 4550
F 0 "P1202" H 7000 4750 50  0000 C CNN
F 1 "MODE_SEL" V 7100 4550 50  0000 C CNN
F 2 "w_conn_mkds:mkds_1,5-3" H 7000 4550 60  0001 C CNN
F 3 "" H 7000 4550 60  0000 C CNN
	1    7000 4550
	1    0    0    -1  
$EndComp
Wire Wire Line
	4200 1700 4500 1700
Text HLabel 5700 2650 2    60   Output ~ 0
SEL_E1_A0
Text HLabel 5700 2550 2    60   Output ~ 0
SEL_E2_A0
Text HLabel 5700 2250 2    60   Output ~ 0
SEL_T3_A0
Text HLabel 5700 2350 2    60   Output ~ 0
SEL_T3_A1
Text HLabel 5700 2450 2    60   Output ~ 0
SEL_FM_A0
Wire Wire Line
	5350 3150 5700 3150
Wire Wire Line
	5700 3250 5350 3250
Wire Wire Line
	5350 3350 5700 3350
Wire Wire Line
	5700 2250 5350 2250
Wire Wire Line
	5350 2350 5700 2350
Wire Wire Line
	5700 2450 5350 2450
Wire Wire Line
	5350 2550 5700 2550
Wire Wire Line
	5700 2650 5350 2650
NoConn ~ 5350 2750
NoConn ~ 5350 2850
Text HLabel 5700 2950 2    60   Output ~ 0
GL_ENA
Wire Wire Line
	5350 2950 5700 2950
Wire Wire Line
	6600 4650 6600 4700
Wire Wire Line
	9050 2200 9500 2200
$Comp
L GND #PWR046
U 1 1 5664307E
P 8000 3350
F 0 "#PWR046" H 8000 3100 50  0001 C CNN
F 1 "GND" H 8000 3200 50  0000 C CNN
F 2 "" H 8000 3350 60  0000 C CNN
F 3 "" H 8000 3350 60  0000 C CNN
	1    8000 3350
	1    0    0    1   
$EndComp
Wire Wire Line
	8000 3350 8000 3650
Wire Wire Line
	8000 3650 8150 3650
$Comp
L R R302
U 1 1 5664317F
P 7800 4050
F 0 "R302" V 7880 4050 50  0000 C CNN
F 1 "0" V 7800 4050 50  0000 C CNN
F 2 "Resistors_ThroughHole:Resistor_Horizontal_RM10mm" V 7730 4050 30  0001 C CNN
F 3 "" H 7800 4050 30  0000 C CNN
	1    7800 4050
	0    1    -1   0   
$EndComp
$Comp
L R R301
U 1 1 5664322C
P 7800 3850
F 0 "R301" V 7880 3850 50  0000 C CNN
F 1 "0" V 7800 3850 50  0000 C CNN
F 2 "Resistors_ThroughHole:Resistor_Horizontal_RM10mm" V 7730 3850 30  0001 C CNN
F 3 "" H 7800 3850 30  0000 C CNN
	1    7800 3850
	0    1    -1   0   
$EndComp
$Comp
L CONN_01X06 P301
U 1 1 56643EB4
P 8350 3900
F 0 "P301" H 8350 4250 50  0000 C CNN
F 1 "CONN_01X06" V 8450 3900 50  0000 C CNN
F 2 "w_pin_strip:pin_strip_6" H 8350 3900 60  0001 C CNN
F 3 "" H 8350 3900 60  0000 C CNN
	1    8350 3900
	1    0    0    -1  
$EndComp
Wire Wire Line
	8150 4050 7950 4050
Wire Wire Line
	7500 4050 7650 4050
Wire Wire Line
	7500 4050 7500 5050
Wire Wire Line
	7500 5050 5350 5050
Wire Wire Line
	8150 3950 8000 3950
Wire Wire Line
	8000 3950 8000 3850
Wire Wire Line
	8000 3850 7950 3850
Wire Wire Line
	7400 3850 7650 3850
Wire Wire Line
	7400 3850 7400 4950
Wire Wire Line
	7400 4950 5350 4950
NoConn ~ 8150 3850
NoConn ~ 8150 3750
$Comp
L C C303
U 1 1 566441D9
P 8050 4450
F 0 "C303" H 8075 4550 50  0000 L CNN
F 1 "100n" H 8075 4350 50  0000 L CNN
F 2 "w_capacitors:cnp_7x4.5mm" H 8088 4300 30  0001 C CNN
F 3 "" H 8050 4450 60  0000 C CNN
	1    8050 4450
	1    0    0    -1  
$EndComp
Wire Wire Line
	8150 4150 8050 4150
Wire Wire Line
	8050 4150 8050 4300
Text Label 9250 4850 0    60   ~ 0
RESET
$Comp
L R R303
U 1 1 56645719
P 9050 4550
F 0 "R303" V 9130 4550 50  0000 C CNN
F 1 "10K" V 9050 4550 50  0000 C CNN
F 2 "Resistors_ThroughHole:Resistor_Horizontal_RM10mm" V 8980 4550 30  0001 C CNN
F 3 "" H 9050 4550 30  0000 C CNN
	1    9050 4550
	1    0    0    -1  
$EndComp
$Comp
L +5VD #PWR047
U 1 1 56645776
P 9050 4250
F 0 "#PWR047" H 9050 4100 50  0001 C CNN
F 1 "+5VD" H 9050 4390 50  0000 C CNN
F 2 "" H 9050 4250 60  0000 C CNN
F 3 "" H 9050 4250 60  0000 C CNN
	1    9050 4250
	1    0    0    -1  
$EndComp
Wire Wire Line
	9050 4250 9050 4400
Wire Wire Line
	9050 4700 9050 4900
Wire Wire Line
	8050 4850 9550 4850
Connection ~ 9050 4850
Wire Wire Line
	8050 4600 8050 4850
$Comp
L LED D301
U 1 1 56700A31
P 5900 6800
F 0 "D301" H 5900 6900 50  0000 C CNN
F 1 "LED GREEN" H 5900 6700 50  0000 C CNN
F 2 "w_conn_modu:AMP-MODU-2" H 5900 6800 60  0001 C CNN
F 3 "" H 5900 6800 60  0000 C CNN
	1    5900 6800
	0    -1   -1   0   
$EndComp
$Comp
L LED D302
U 1 1 56700F3A
P 6300 6800
F 0 "D302" H 6300 6900 50  0000 C CNN
F 1 "LED RED" H 6300 6700 50  0000 C CNN
F 2 "w_conn_modu:AMP-MODU-2" H 6300 6800 60  0001 C CNN
F 3 "" H 6300 6800 60  0000 C CNN
	1    6300 6800
	0    -1   -1   0   
$EndComp
$Comp
L R R304
U 1 1 56700F6E
P 5900 6300
F 0 "R304" V 5980 6300 50  0000 C CNN
F 1 "1K" V 5900 6300 50  0000 C CNN
F 2 "Resistors_ThroughHole:Resistor_Horizontal_RM10mm" V 5830 6300 30  0001 C CNN
F 3 "" H 5900 6300 30  0000 C CNN
	1    5900 6300
	1    0    0    -1  
$EndComp
$Comp
L R R305
U 1 1 56700FAD
P 6300 6300
F 0 "R305" V 6380 6300 50  0000 C CNN
F 1 "1K" V 6300 6300 50  0000 C CNN
F 2 "Resistors_ThroughHole:Resistor_Horizontal_RM10mm" V 6230 6300 30  0001 C CNN
F 3 "" H 6300 6300 30  0000 C CNN
	1    6300 6300
	1    0    0    -1  
$EndComp
$Comp
L GND #PWR048
U 1 1 5670101C
P 6100 7150
F 0 "#PWR048" H 6100 6900 50  0001 C CNN
F 1 "GND" H 6100 7000 50  0000 C CNN
F 2 "" H 6100 7150 60  0000 C CNN
F 3 "" H 6100 7150 60  0000 C CNN
	1    6100 7150
	1    0    0    -1  
$EndComp
Wire Wire Line
	5900 7000 5900 7100
Wire Wire Line
	5900 7100 6300 7100
Wire Wire Line
	6300 7100 6300 7000
Wire Wire Line
	6100 7150 6100 7100
Connection ~ 6100 7100
Wire Wire Line
	5900 6600 5900 6450
Wire Wire Line
	6300 6600 6300 6450
Wire Wire Line
	5350 5650 5900 5650
Wire Wire Line
	5900 5650 5900 6150
$Comp
L +5VD #PWR049
U 1 1 567019D1
P 6300 6050
F 0 "#PWR049" H 6300 5900 50  0001 C CNN
F 1 "+5VD" H 6300 6190 50  0000 C CNN
F 2 "" H 6300 6050 60  0000 C CNN
F 3 "" H 6300 6050 60  0000 C CNN
	1    6300 6050
	1    0    0    -1  
$EndComp
Wire Wire Line
	6300 6150 6300 6050
Text Label 6250 4450 0    60   ~ 0
MODE_SEL_A
Wire Wire Line
	5350 3450 5700 3450
Wire Wire Line
	5700 3550 5350 3550
NoConn ~ 5350 5350
$Comp
L ATMEGA32-P IC1201
U 1 1 56046963
P 4350 3950
F 0 "IC1201" H 3500 5830 40  0000 L BNN
F 1 "ATMEGA32-P" H 4800 2000 40  0000 L BNN
F 2 "w_pth_circuits:dil_40-600" H 4350 3950 30  0000 C CIN
F 3 "" H 4350 3950 60  0000 C CNN
	1    4350 3950
	1    0    0    -1  
$EndComp
Text Label 6250 4550 0    60   ~ 0
MODE_SEL_B
$Comp
L GND #PWR050
U 1 1 5613BB9F
P 6600 4700
F 0 "#PWR050" H 6600 4450 50  0001 C CNN
F 1 "GND" H 6600 4550 50  0000 C CNN
F 2 "" H 6600 4700 60  0000 C CNN
F 3 "" H 6600 4700 60  0000 C CNN
	1    6600 4700
	1    0    0    -1  
$EndComp
Wire Wire Line
	6600 4650 6800 4650
Wire Wire Line
	6150 4450 6150 5450
Wire Wire Line
	6150 4450 6800 4450
Wire Wire Line
	6250 4550 6250 5550
Wire Wire Line
	6250 4550 6800 4550
NoConn ~ 5350 5150
NoConn ~ 5350 5250
$Comp
L C C302
U 1 1 56AC9CB3
P 1700 3750
F 0 "C302" H 1725 3850 50  0000 L CNN
F 1 "0.1u" H 1725 3650 50  0000 L CNN
F 2 "w_capacitors:cnp_3mm_disc" H 1738 3600 30  0001 C CNN
F 3 "" H 1700 3750 60  0000 C CNN
	1    1700 3750
	1    0    0    -1  
$EndComp
$Comp
L +5VD #PWR051
U 1 1 56AC9D43
P 1700 3450
F 0 "#PWR051" H 1700 3300 50  0001 C CNN
F 1 "+5VD" H 1700 3590 50  0000 C CNN
F 2 "" H 1700 3450 60  0000 C CNN
F 3 "" H 1700 3450 60  0000 C CNN
	1    1700 3450
	1    0    0    -1  
$EndComp
$Comp
L GND #PWR052
U 1 1 56AC9D7B
P 1700 4050
F 0 "#PWR052" H 1700 3800 50  0001 C CNN
F 1 "GND" H 1700 3900 50  0000 C CNN
F 2 "" H 1700 4050 60  0000 C CNN
F 3 "" H 1700 4050 60  0000 C CNN
	1    1700 4050
	1    0    0    -1  
$EndComp
Wire Wire Line
	1700 3450 1700 3600
Wire Wire Line
	1700 3900 1700 4050
$Comp
L C C301
U 1 1 56AC9F7B
P 2050 3750
F 0 "C301" H 2075 3850 50  0000 L CNN
F 1 "0.1u" H 2075 3650 50  0000 L CNN
F 2 "w_capacitors:cnp_3mm_disc" H 2088 3600 30  0001 C CNN
F 3 "" H 2050 3750 60  0000 C CNN
	1    2050 3750
	1    0    0    -1  
$EndComp
$Comp
L +5VD #PWR053
U 1 1 56AC9F81
P 2050 3450
F 0 "#PWR053" H 2050 3300 50  0001 C CNN
F 1 "+5VD" H 2050 3590 50  0000 C CNN
F 2 "" H 2050 3450 60  0000 C CNN
F 3 "" H 2050 3450 60  0000 C CNN
	1    2050 3450
	1    0    0    -1  
$EndComp
$Comp
L GND #PWR054
U 1 1 56AC9F87
P 2050 4050
F 0 "#PWR054" H 2050 3800 50  0001 C CNN
F 1 "GND" H 2050 3900 50  0000 C CNN
F 2 "" H 2050 4050 60  0000 C CNN
F 3 "" H 2050 4050 60  0000 C CNN
	1    2050 4050
	1    0    0    -1  
$EndComp
Wire Wire Line
	2050 3450 2050 3600
Wire Wire Line
	2050 3900 2050 4050
Wire Wire Line
	6150 5450 5350 5450
Wire Wire Line
	6250 5550 5350 5550
NoConn ~ 5350 4550
NoConn ~ 5350 4650
$EndSCHEMATC
