EESchema Schematic File Version 2
LIBS:power
LIBS:device
LIBS:transistors
LIBS:conn
LIBS:linear
LIBS:regul
LIBS:74xx
LIBS:cmos4000
LIBS:adc-dac
LIBS:memory
LIBS:xilinx
LIBS:microcontrollers
LIBS:dsp
LIBS:microchip
LIBS:analog_switches
LIBS:motorola
LIBS:texas
LIBS:intel
LIBS:audio
LIBS:interface
LIBS:digital-audio
LIBS:philips
LIBS:display
LIBS:cypress
LIBS:siliconi
LIBS:opto
LIBS:atmel
LIBS:contrib
LIBS:valves
LIBS:w_connectors
LIBS:mylib
LIBS:DCDC-ACDC-Converter
LIBS:radio-muxer-cache
EELAYER 25 0
EELAYER END
$Descr A4 11693 8268
encoding utf-8
Sheet 1 11
Title "Radio Muxer"
Date "2016-01-25"
Rev "5"
Comp "distelco s.r.l."
Comment1 ""
Comment2 ""
Comment3 ""
Comment4 ""
$EndDescr
$Comp
L HEADER_2 J101
U 1 1 5603B5DE
P 700 1950
F 0 "J101" H 700 2100 60  0000 C CNN
F 1 "PWR" H 700 1800 60  0000 C CNN
F 2 "w_conn_mkds:mkds_1,5-2" H 700 1950 60  0001 C CNN
F 3 "" H 700 1950 60  0000 C CNN
	1    700  1950
	-1   0    0    1   
$EndComp
$Comp
L C C101
U 1 1 5603B7B3
P 1650 1200
F 0 "C101" H 1675 1300 50  0000 L CNN
F 1 "1u" H 1675 1100 50  0000 L CNN
F 2 "w_capacitors:cnp_7x4.5mm" H 1688 1050 30  0001 C CNN
F 3 "" H 1650 1200 60  0000 C CNN
	1    1650 1200
	1    0    0    -1  
$EndComp
$Comp
L CP C102
U 1 1 5603B82E
P 2000 1250
F 0 "C102" H 2025 1350 50  0000 L CNN
F 1 "47u" H 2025 1150 50  0000 L CNN
F 2 "w_capacitors:CP_6.3x7mm" H 2038 1100 30  0001 C CNN
F 3 "" H 2000 1250 60  0000 C CNN
	1    2000 1250
	1    0    0    -1  
$EndComp
$Comp
L CONN_01X08 P110
U 1 1 56062224
P 4700 7000
F 0 "P110" H 4700 7450 50  0000 C CNN
F 1 "FMO_R" V 4800 7000 50  0000 C CNN
F 2 "Connect:RJ45_8" H 4700 7000 60  0001 C CNN
F 3 "" H 4700 7000 60  0000 C CNN
	1    4700 7000
	-1   0    0    -1  
$EndComp
$Comp
L CONN_01X08 P111
U 1 1 5606A758
P 5800 7000
F 0 "P111" H 5800 7450 50  0000 C CNN
F 1 "FMO_L" V 5900 7000 50  0000 C CNN
F 2 "Connect:RJ45_8" H 5800 7000 60  0001 C CNN
F 3 "" H 5800 7000 60  0000 C CNN
	1    5800 7000
	-1   0    0    -1  
$EndComp
$Comp
L CONN_01X08 P101
U 1 1 5606A971
P 1050 3850
F 0 "P101" H 1050 4300 50  0000 C CNN
F 1 "E1" V 1150 3850 50  0000 C CNN
F 2 "Connect:RJ45_8" H 1050 3850 60  0001 C CNN
F 3 "" H 1050 3850 60  0000 C CNN
	1    1050 3850
	-1   0    0    -1  
$EndComp
$Comp
L CONN_01X08 P102
U 1 1 5606AAF6
P 3750 3800
F 0 "P102" H 3750 4250 50  0000 C CNN
F 1 "E2" V 3850 3800 50  0000 C CNN
F 2 "Connect:RJ45_8" H 3750 3800 60  0001 C CNN
F 3 "" H 3750 3800 60  0000 C CNN
	1    3750 3800
	-1   0    0    -1  
$EndComp
$Comp
L CONN_01X08 P103
U 1 1 5606B57A
P 1450 5600
F 0 "P103" H 1450 6050 50  0000 C CNN
F 1 "FMI" V 1550 5600 50  0000 C CNN
F 2 "Connect:RJ45_8" H 1450 5600 60  0001 C CNN
F 3 "" H 1450 5600 60  0000 C CNN
	1    1450 5600
	-1   0    0    -1  
$EndComp
Text Label 1350 7050 0    60   ~ 0
T1_TxOn
Text Label 1350 6950 0    60   ~ 0
T1_RxGate
NoConn ~ 1650 5750
NoConn ~ 1650 5450
Text Label 1750 5250 0    60   ~ 0
FMI_L_In-
Text Label 1750 5350 0    60   ~ 0
FMI_L_In+
Text Label 1750 5550 0    60   ~ 0
FMI_R_In-
Text Label 1750 5650 0    60   ~ 0
FMI_R_In+
Text Label 1350 6850 0    60   ~ 0
T1_In-
Text Label 1350 7150 0    60   ~ 0
T1_In+
Text Label 1350 6650 0    60   ~ 0
T1_Out-
Text Label 1350 6750 0    60   ~ 0
T1_Out+
Text Label 1300 3500 0    60   ~ 0
E1_In-
Text Label 1300 3600 0    60   ~ 0
E1_In+
Text Label 1300 3700 0    60   ~ 0
E1_Out-
Text Label 1300 4000 0    60   ~ 0
E1_Out+
Text Label 2700 4400 0    60   ~ 0
E1_RxGate
Text Label 2750 3600 0    60   ~ 0
E1_TxOn
Text Label 4000 3450 0    60   ~ 0
E2_In-
Text Label 4000 3550 0    60   ~ 0
E2_In+
Text Label 4000 3650 0    60   ~ 0
E2_Out-
Text Label 4950 6850 0    60   ~ 0
FMO_R_Out-
Text Label 4950 7150 0    60   ~ 0
FMO_R_Out+
Text Label 6050 6850 0    60   ~ 0
FMO_L_Out-
Text Label 6050 7150 0    60   ~ 0
FMO_L_Out+
NoConn ~ 6000 6650
NoConn ~ 6000 6750
NoConn ~ 6000 6950
NoConn ~ 6000 7050
NoConn ~ 4900 7050
NoConn ~ 4900 6950
NoConn ~ 4900 6750
NoConn ~ 4900 6650
Text Label 5700 6100 0    60   ~ 0
E1_In-
Text Label 5700 6000 0    60   ~ 0
E1_In+
Text Label 5700 5600 0    60   ~ 0
E2_In-
Text Label 5700 5500 0    60   ~ 0
E2_In+
Text Notes 7050 7000 0    60   ~ 0
Convenzione nomi\nxxx_In Audio in ingresso\nxxx_Out Audio in uscita\nxx_RX input da radio in ricezione\nxx_TX comando trasmissione radio
Text Label 8250 2750 0    60   ~ 0
T1_In-
Text Label 8250 2650 0    60   ~ 0
T1_In+
Text Label 8250 1850 0    60   ~ 0
T2_In-
Text Label 5700 5100 0    60   ~ 0
T3_In-
Text Label 5700 5000 0    60   ~ 0
T3_In+
Text Label 10200 3050 0    60   ~ 0
E1_Out-
Text Label 10200 2950 0    60   ~ 0
E1_Out+
Text Label 10200 2150 0    60   ~ 0
E2_Out-
Text Label 10200 2050 0    60   ~ 0
E2_Out+
Text Label 7600 6100 0    60   ~ 0
T1_Out-
Text Label 7600 6000 0    60   ~ 0
T1_Out+
Text Label 7600 5500 0    60   ~ 0
T2_Out+
Text Label 7600 5600 0    60   ~ 0
T2_Out-
Text Label 10200 1150 0    60   ~ 0
T3_Out+
Text Label 10200 1250 0    60   ~ 0
T3_Out-
Text Label 5000 1850 0    60   ~ 0
PTT
Text Label 10150 4850 0    60   ~ 0
FMO_R_Out-
Text Label 10150 4750 0    60   ~ 0
FMO_R_Out+
Text Label 10150 3950 0    60   ~ 0
FMO_L_Out-
Text Label 10150 3850 0    60   ~ 0
FMO_L_Out+
Text Label 8250 3650 0    60   ~ 0
FMI_L_In-
Text Label 8250 3550 0    60   ~ 0
FMI_L_In+
Text Label 8250 4550 0    60   ~ 0
FMI_R_In-
Text Label 8250 4450 0    60   ~ 0
FMI_R_In+
$Comp
L +5VD #PWR01
U 1 1 560F6F07
P 4350 750
F 0 "#PWR01" H 4350 600 50  0001 C CNN
F 1 "+5VD" H 4350 890 50  0000 C CNN
F 2 "" H 4350 750 60  0000 C CNN
F 3 "" H 4350 750 60  0000 C CNN
	1    4350 750 
	1    0    0    -1  
$EndComp
$Comp
L C C105
U 1 1 560FBC39
P 3250 2450
F 0 "C105" H 3275 2550 50  0000 L CNN
F 1 "0.1u" H 3275 2350 50  0000 L CNN
F 2 "w_capacitors:cnp_7x4.5mm" H 3288 2300 30  0001 C CNN
F 3 "" H 3250 2450 60  0000 C CNN
	1    3250 2450
	0    1    1    0   
$EndComp
$Comp
L +5VA #PWR02
U 1 1 560FDCD8
P 3450 2700
F 0 "#PWR02" H 3450 2550 50  0001 C CNN
F 1 "+5VA" H 3450 2840 50  0000 C CNN
F 2 "" H 3450 2700 60  0000 C CNN
F 3 "" H 3450 2700 60  0000 C CNN
	1    3450 2700
	-1   0    0    1   
$EndComp
$Comp
L CONN_01X08 P104
U 1 1 561104FA
P 2950 5550
F 0 "P104" H 2950 6000 50  0000 C CNN
F 1 "PTT_MIC" V 3050 5550 50  0000 C CNN
F 2 "Connect:RJ45_8" H 2950 5550 60  0001 C CNN
F 3 "" H 2950 5550 60  0000 C CNN
	1    2950 5550
	-1   0    0    -1  
$EndComp
NoConn ~ 3150 5200
NoConn ~ 3150 5300
NoConn ~ 3150 5400
NoConn ~ 3150 5800
NoConn ~ 3150 5900
Text Label 3250 5500 0    60   ~ 0
PTT
Text Label 3250 5600 0    60   ~ 0
MIC_In
Text Label 8550 4650 2    60   ~ 0
MIC_In+
$Comp
L GND #PWR03
U 1 1 56111538
P 3700 5950
F 0 "#PWR03" H 3700 5700 50  0001 C CNN
F 1 "GND" H 3700 5800 50  0000 C CNN
F 2 "" H 3700 5950 60  0000 C CNN
F 3 "" H 3700 5950 60  0000 C CNN
	1    3700 5950
	1    0    0    -1  
$EndComp
$Comp
L GND #PWR04
U 1 1 56071223
P 2150 5950
F 0 "#PWR04" H 2150 5700 50  0001 C CNN
F 1 "GND" H 2150 5800 50  0000 C CNN
F 2 "" H 2150 5950 60  0000 C CNN
F 3 "" H 2150 5950 60  0000 C CNN
	1    2150 5950
	1    0    0    -1  
$EndComp
$Comp
L GND #PWR05
U 1 1 5608229B
P 4300 4200
F 0 "#PWR05" H 4300 3950 50  0001 C CNN
F 1 "GND" H 4300 4050 50  0000 C CNN
F 2 "" H 4300 4200 60  0000 C CNN
F 3 "" H 4300 4200 60  0000 C CNN
	1    4300 4200
	1    0    0    -1  
$EndComp
$Comp
L GND #PWR06
U 1 1 5614D3AD
P 2700 4650
F 0 "#PWR06" H 2700 4400 50  0001 C CNN
F 1 "GND" H 2700 4500 50  0000 C CNN
F 2 "" H 2700 4650 60  0000 C CNN
F 3 "" H 2700 4650 60  0000 C CNN
	1    2700 4650
	1    0    0    -1  
$EndComp
$Comp
L +12V #PWR07
U 1 1 5603B796
P 1650 750
F 0 "#PWR07" H 1650 600 50  0001 C CNN
F 1 "+12V" H 1650 890 50  0000 C CNN
F 2 "" H 1650 750 60  0000 C CNN
F 3 "" H 1650 750 60  0000 C CNN
	1    1650 750 
	1    0    0    -1  
$EndComp
$Sheet
S 8700 750  1350 700 
U 560D4C6E
F0 "AudioMux_T3" 60
F1 "AudioMux.sch" 60
F2 "AudioOut+" O R 10050 1150 60 
F3 "AudioOut-" O R 10050 1250 60 
F4 "Audio1In+" I L 8700 850 60 
F5 "Audio2In+" I L 8700 1050 60 
F6 "Audio3In+" I L 8700 1250 60 
F7 "Audio1In-" I L 8700 950 60 
F8 "Audio2In-" I L 8700 1150 60 
F9 "Audio3In-" I L 8700 1350 60 
F10 "EN" I R 10050 1350 60 
F11 "A0" I R 10050 1000 60 
F12 "A1" I R 10050 900 60 
$EndSheet
$Sheet
S 5300 750  1300 1750
U 5604687A
F0 "micro-matrix" 60
F1 "micro-matrix.sch" 60
F2 "T1_RX" I L 5300 1050 60 
F3 "T2_RX" I L 5300 1150 60 
F4 "T3_RX" I L 5300 1250 60 
F5 "E1_RX" I L 5300 1500 60 
F6 "E2_RX" I L 5300 1600 60 
F7 "T1_TX" O R 6600 1050 60 
F8 "T2_TX" O R 6600 1150 60 
F9 "T3_TX" O R 6600 1250 60 
F10 "E1_TX" O R 6600 1500 60 
F11 "E2_TX" O R 6600 1600 60 
F12 "PTT" I L 5300 1850 60 
F13 "SEL_E1_A0" O R 6600 1850 60 
F14 "SEL_E2_A0" O R 6600 1950 60 
F15 "SEL_T3_A0" O R 6600 2050 60 
F16 "SEL_T3_A1" O R 6600 2150 60 
F17 "SEL_FM_A0" O R 6600 2250 60 
F18 "GL_ENA" O R 6600 2350 60 
$EndSheet
$Sheet
S 8700 2550 1350 700 
U 560DF707
F0 "AudioMux_E1" 60
F1 "AudioMux.sch" 60
F2 "AudioOut+" O R 10050 2950 60 
F3 "AudioOut-" O R 10050 3050 60 
F4 "Audio1In+" I L 8700 2650 60 
F5 "Audio2In+" I L 8700 2850 60 
F6 "Audio3In+" I L 8700 3050 60 
F7 "Audio1In-" I L 8700 2750 60 
F8 "Audio2In-" I L 8700 2950 60 
F9 "Audio3In-" I L 8700 3150 60 
F10 "EN" I R 10050 3150 60 
F11 "A0" I R 10050 2800 60 
F12 "A1" I R 10050 2700 60 
$EndSheet
$Sheet
S 8700 1650 1350 700 
U 560F0ED9
F0 "AudioMux_E2" 60
F1 "AudioMux.sch" 60
F2 "AudioOut+" O R 10050 2050 60 
F3 "AudioOut-" O R 10050 2150 60 
F4 "Audio1In+" I L 8700 1750 60 
F5 "Audio2In+" I L 8700 1950 60 
F6 "Audio3In+" I L 8700 2150 60 
F7 "Audio1In-" I L 8700 1850 60 
F8 "Audio2In-" I L 8700 2050 60 
F9 "Audio3In-" I L 8700 2250 60 
F10 "EN" I R 10050 2250 60 
F11 "A0" I R 10050 1900 60 
F12 "A1" I R 10050 1800 60 
$EndSheet
$Sheet
S 8700 3450 1350 700 
U 560F0EDB
F0 "AudioMux_FM_L" 60
F1 "AudioMux.sch" 60
F2 "AudioOut+" O R 10050 3850 60 
F3 "AudioOut-" O R 10050 3950 60 
F4 "Audio1In+" I L 8700 3550 60 
F5 "Audio2In+" I L 8700 3750 60 
F6 "Audio3In+" I L 8700 3950 60 
F7 "Audio1In-" I L 8700 3650 60 
F8 "Audio2In-" I L 8700 3850 60 
F9 "Audio3In-" I L 8700 4050 60 
F10 "EN" I R 10050 4050 60 
F11 "A0" I R 10050 3700 60 
F12 "A1" I R 10050 3600 60 
$EndSheet
$Sheet
S 8700 4350 1350 700 
U 560F0EDA
F0 "AudioMux_FM_R" 60
F1 "AudioMux.sch" 60
F2 "AudioOut+" O R 10050 4750 60 
F3 "AudioOut-" O R 10050 4850 60 
F4 "Audio1In+" I L 8700 4450 60 
F5 "Audio2In+" I L 8700 4650 60 
F6 "Audio3In+" I L 8700 4850 60 
F7 "Audio1In-" I L 8700 4550 60 
F8 "Audio2In-" I L 8700 4750 60 
F9 "Audio3In-" I L 8700 4950 60 
F10 "EN" I R 10050 4950 60 
F11 "A0" I R 10050 4600 60 
F12 "A1" I R 10050 4500 60 
$EndSheet
Text Label 8550 4750 2    60   ~ 0
MIC_In-
Text Label 8550 3750 2    60   ~ 0
MIC_In+
Text Label 8550 3850 2    60   ~ 0
MIC_In-
$Comp
L -5VA #PWR106
U 1 1 5610392D
P 2650 2700
F 0 "#PWR106" H 2650 2800 50  0001 C CNN
F 1 "-5VA" H 2650 2850 50  0000 C CNN
F 2 "" H 2650 2700 60  0000 C CNN
F 3 "" H 2650 2700 60  0000 C CNN
	1    2650 2700
	-1   0    0    1   
$EndComp
$Comp
L C C103
U 1 1 5610686E
P 2850 2450
F 0 "C103" H 2875 2550 50  0000 L CNN
F 1 "0.1u" H 2875 2350 50  0000 L CNN
F 2 "w_capacitors:cnp_7x4.5mm" H 2888 2300 30  0001 C CNN
F 3 "" H 2850 2450 60  0000 C CNN
	1    2850 2450
	0    1    1    0   
$EndComp
$Comp
L PWR_FLAG #FLG08
U 1 1 5611041D
P 2000 900
F 0 "#FLG08" H 2000 995 50  0001 C CNN
F 1 "PWR_FLAG" H 2000 1080 50  0000 C CNN
F 2 "" H 2000 900 60  0000 C CNN
F 3 "" H 2000 900 60  0000 C CNN
	1    2000 900 
	1    0    0    -1  
$EndComp
$Comp
L PWR_FLAG #FLG09
U 1 1 561105F7
P 2000 1600
F 0 "#FLG09" H 2000 1695 50  0001 C CNN
F 1 "PWR_FLAG" H 2000 1780 50  0000 C CNN
F 2 "" H 2000 1600 60  0000 C CNN
F 3 "" H 2000 1600 60  0000 C CNN
	1    2000 1600
	-1   0    0    1   
$EndComp
$Comp
L DCDC-CONV_TRACO_TMH-XXXX_Dual_REVA_27MAR2011 IC101
U 1 1 561112D0
P 2850 1000
F 0 "IC101" H 2600 1250 60  0000 C CNN
F 1 "TRA 1-1221" H 3250 1250 60  0000 C CNN
F 2 "w_pth_circuits:dcdc_sil" H 2850 1000 60  0001 C CNN
F 3 "" H 2850 1000 60  0000 C CNN
	1    2850 1000
	1    0    0    -1  
$EndComp
$Comp
L CONN_01X04 P106
U 1 1 5611E502
P 10500 5850
F 0 "P106" H 10500 6100 50  0000 C CNN
F 1 "CONN_01X04" V 10600 5850 50  0000 C CNN
F 2 "w_pin_strip:pin_strip_4" H 10500 5850 60  0001 C CNN
F 3 "" H 10500 5850 60  0000 C CNN
	1    10500 5850
	1    0    0    -1  
$EndComp
$Comp
L +5VA #PWR010
U 1 1 5611F028
P 10250 5600
F 0 "#PWR010" H 10250 5450 50  0001 C CNN
F 1 "+5VA" H 10250 5740 50  0000 C CNN
F 2 "" H 10250 5600 60  0000 C CNN
F 3 "" H 10250 5600 60  0000 C CNN
	1    10250 5600
	1    0    0    -1  
$EndComp
$Comp
L GND #PWR011
U 1 1 5611FDB1
P 10250 6050
F 0 "#PWR011" H 10250 5800 50  0001 C CNN
F 1 "GND" H 10250 5900 50  0000 C CNN
F 2 "" H 10250 6050 60  0000 C CNN
F 3 "" H 10250 6050 60  0000 C CNN
	1    10250 6050
	1    0    0    -1  
$EndComp
$Comp
L -5VA #PWR127
U 1 1 56120412
P 10000 5600
F 0 "#PWR127" H 10000 5700 50  0001 C CNN
F 1 "-5VA" H 10000 5750 50  0000 C CNN
F 2 "" H 10000 5600 60  0000 C CNN
F 3 "" H 10000 5600 60  0000 C CNN
	1    10000 5600
	1    0    0    -1  
$EndComp
$Comp
L CONN_01X04 P105
U 1 1 56120D22
P 9150 5850
F 0 "P105" H 9150 6100 50  0000 C CNN
F 1 "CONN_01X04" V 9250 5850 50  0000 C CNN
F 2 "w_pin_strip:pin_strip_4" H 9150 5850 60  0001 C CNN
F 3 "" H 9150 5850 60  0000 C CNN
	1    9150 5850
	1    0    0    -1  
$EndComp
Text Label 8600 6000 0    60   ~ 0
MIC_In
Text Label 8950 5800 2    60   ~ 0
MIC_In+
Text Label 8950 5900 2    60   ~ 0
MIC_In-
NoConn ~ 8950 5700
$Comp
L GND #PWR012
U 1 1 56128160
P 3050 2700
F 0 "#PWR012" H 3050 2450 50  0001 C CNN
F 1 "GND" H 3050 2550 50  0000 C CNN
F 2 "" H 3050 2700 60  0000 C CNN
F 3 "" H 3050 2700 60  0000 C CNN
	1    3050 2700
	1    0    0    -1  
$EndComp
$Comp
L GND #PWR013
U 1 1 5613054E
P 10650 4500
F 0 "#PWR013" H 10650 4250 50  0001 C CNN
F 1 "GND" H 10650 4350 50  0000 C CNN
F 2 "" H 10650 4500 60  0000 C CNN
F 3 "" H 10650 4500 60  0000 C CNN
	1    10650 4500
	0    -1   -1   0   
$EndComp
$Comp
L GND #PWR014
U 1 1 5613072C
P 10650 3600
F 0 "#PWR014" H 10650 3350 50  0001 C CNN
F 1 "GND" H 10650 3450 50  0000 C CNN
F 2 "" H 10650 3600 60  0000 C CNN
F 3 "" H 10650 3600 60  0000 C CNN
	1    10650 3600
	0    -1   -1   0   
$EndComp
$Comp
L GND #PWR015
U 1 1 5613256F
P 10650 2700
F 0 "#PWR015" H 10650 2450 50  0001 C CNN
F 1 "GND" H 10650 2550 50  0000 C CNN
F 2 "" H 10650 2700 60  0000 C CNN
F 3 "" H 10650 2700 60  0000 C CNN
	1    10650 2700
	0    -1   -1   0   
$EndComp
$Comp
L GND #PWR016
U 1 1 56132742
P 10650 1800
F 0 "#PWR016" H 10650 1550 50  0001 C CNN
F 1 "GND" H 10650 1650 50  0000 C CNN
F 2 "" H 10650 1800 60  0000 C CNN
F 3 "" H 10650 1800 60  0000 C CNN
	1    10650 1800
	0    -1   -1   0   
$EndComp
Text Label 6750 1850 0    60   ~ 0
E1_A0
Text Label 6750 1950 0    60   ~ 0
E2_A0
Text Label 6750 2050 0    60   ~ 0
T3_A0
Text Label 6750 2150 0    60   ~ 0
T3_A1
Text Label 6750 2250 0    60   ~ 0
FM_A0
Text Label 10200 2800 0    60   ~ 0
E1_A0
Text Label 10200 1900 0    60   ~ 0
E2_A0
Text Label 10200 1000 0    60   ~ 0
T3_A0
Text Label 10200 900  0    60   ~ 0
T3_A1
Text Label 10200 3700 0    60   ~ 0
FM_A0
Text Label 10200 4600 0    60   ~ 0
FM_A0
Text Label 6750 2350 0    60   ~ 0
GL_ENA
Text Label 10200 4950 0    60   ~ 0
GL_ENA
Text Label 10200 4050 0    60   ~ 0
GL_ENA
Text Label 10200 3150 0    60   ~ 0
GL_ENA
Text Label 10200 2250 0    60   ~ 0
GL_ENA
Text Label 10200 1350 0    60   ~ 0
GL_ENA
$Sheet
S 6150 5900 950  300 
U 566063DF
F0 "AudioBuffer1" 60
F1 "AudioBuffer.sch" 60
F2 "In+" I L 6150 6000 60 
F3 "In-" I L 6150 6100 60 
F4 "Out-" O R 7100 6100 60 
F5 "Out+" O R 7100 6000 60 
$EndSheet
$Sheet
S 6150 5400 950  300 
U 5662164F
F0 "AudioBuffer2" 60
F1 "AudioBuffer.sch" 60
F2 "In+" I L 6150 5500 60 
F3 "In-" I L 6150 5600 60 
F4 "Out-" O R 7100 5600 60 
F5 "Out+" O R 7100 5500 60 
$EndSheet
$Sheet
S 6150 4900 950  300 
U 56621B51
F0 "AudioBuffer3" 60
F1 "AudioBuffer.sch" 60
F2 "In+" I L 6150 5000 60 
F3 "In-" I L 6150 5100 60 
F4 "Out-" O R 7100 5100 60 
F5 "Out+" O R 7100 5000 60 
$EndSheet
Text Label 7500 6000 2    60   ~ 0
E1b_In+
Text Label 7500 6100 2    60   ~ 0
E1b_In-
Text Label 7500 5500 2    60   ~ 0
E2b_In+
Text Label 7500 5600 2    60   ~ 0
E2b_In-
Text Label 7500 5000 2    60   ~ 0
T3b_In+
Text Label 7500 5100 2    60   ~ 0
T3b_In-
Text Label 8600 850  2    60   ~ 0
E1b_In+
Text Label 8600 950  2    60   ~ 0
E1b_In-
Text Label 8600 1050 2    60   ~ 0
E2b_In+
Text Label 8600 1150 2    60   ~ 0
E2b_In-
Text Label 8600 1250 2    60   ~ 0
T3b_In+
Text Label 8600 1350 2    60   ~ 0
T3b_In-
Text Label 8250 1750 0    60   ~ 0
T2_In+
Text Label 8600 2850 2    60   ~ 0
T3b_In+
Text Label 8600 2950 2    60   ~ 0
T3b_In-
Text Label 8600 1950 2    60   ~ 0
T3b_In+
Text Label 8600 2050 2    60   ~ 0
T3b_In-
$Comp
L C C106
U 1 1 5662D0CB
P 4200 1200
F 0 "C106" H 4225 1300 50  0000 L CNN
F 1 "0.1u" H 4225 1100 50  0000 L CNN
F 2 "w_capacitors:cnp_7x4.5mm" H 4238 1050 30  0001 C CNN
F 3 "" H 4200 1200 60  0000 C CNN
	1    4200 1200
	1    0    0    -1  
$EndComp
$Comp
L GND #PWR017
U 1 1 5662E80D
P 4000 1650
F 0 "#PWR017" H 4000 1400 50  0001 C CNN
F 1 "GND" H 4000 1500 50  0000 C CNN
F 2 "" H 4000 1650 60  0000 C CNN
F 3 "" H 4000 1650 60  0000 C CNN
	1    4000 1650
	1    0    0    -1  
$EndComp
$Comp
L INDUCTOR L102
U 1 1 5662F993
P 3450 1300
F 0 "L102" V 3400 1300 50  0000 C CNN
F 1 "100uH" V 3550 1300 50  0000 C CNN
F 2 "Inductors:INDUCTOR_V" H 3450 1300 60  0001 C CNN
F 3 "" H 3450 1300 60  0000 C CNN
	1    3450 1300
	1    0    0    -1  
$EndComp
$Comp
L PWR_FLAG #FLG018
U 1 1 5663FE7F
P 3800 950
F 0 "#FLG018" H 3800 1045 50  0001 C CNN
F 1 "PWR_FLAG" H 3800 1130 50  0000 C CNN
F 2 "" H 3800 950 60  0000 C CNN
F 3 "" H 3800 950 60  0000 C CNN
	1    3800 950 
	1    0    0    -1  
$EndComp
$Comp
L FUSE F101
U 1 1 566971C2
P 900 1300
F 0 "F101" H 1000 1350 50  0000 C CNN
F 1 "500mA Slow" H 750 1200 50  0000 C CNN
F 2 "c_modules:Fuseholder_Fuse_Vertical" H 900 1300 60  0001 C CNN
F 3 "" H 900 1300 60  0000 C CNN
	1    900  1300
	0    1    1    0   
$EndComp
$Comp
L L_Small L104
U 1 1 5669BF4E
P 3450 2200
F 0 "L104" H 3480 2240 50  0000 L CNN
F 1 "100uH" H 3480 2160 50  0000 L CNN
F 2 "Inductors:INDUCTOR_V" H 3450 2200 60  0001 C CNN
F 3 "" H 3450 2200 60  0000 C CNN
	1    3450 2200
	1    0    0    -1  
$EndComp
$Comp
L L_Small L103
U 1 1 5669C1D1
P 2650 2200
F 0 "L103" H 2680 2240 50  0000 L CNN
F 1 "100uH" H 2680 2160 50  0000 L CNN
F 2 "Inductors:INDUCTOR_V" H 2650 2200 60  0001 C CNN
F 3 "" H 2650 2200 60  0000 C CNN
	1    2650 2200
	1    0    0    -1  
$EndComp
$Comp
L PWR_FLAG #FLG019
U 1 1 566A6226
P 2650 2450
F 0 "#FLG019" H 2650 2545 50  0001 C CNN
F 1 "PWR_FLAG" V 2550 2700 50  0000 C CNN
F 2 "" H 2650 2450 60  0000 C CNN
F 3 "" H 2650 2450 60  0000 C CNN
	1    2650 2450
	0    -1   -1   0   
$EndComp
$Comp
L PWR_FLAG #FLG020
U 1 1 566A648F
P 3450 2450
F 0 "#FLG020" H 3450 2545 50  0001 C CNN
F 1 "PWR_FLAG" V 3550 2750 50  0000 C CNN
F 2 "" H 3450 2450 60  0000 C CNN
F 3 "" H 3450 2450 60  0000 C CNN
	1    3450 2450
	0    1    1    0   
$EndComp
$Comp
L LTV-817 U102
U 1 1 569CC20F
P 2400 3500
F 0 "U102" H 2350 3300 50  0000 L CNN
F 1 "LTV-817" H 2250 3700 50  0000 L CNN
F 2 "Housings_DIP:DIP-4_W7.62mm" H 2200 3300 50  0001 L CIN
F 3 "" H 2400 3400 50  0000 L CNN
	1    2400 3500
	-1   0    0    -1  
$EndComp
$Comp
L CONN_01X08 P107
U 1 1 56A02FC8
P 1100 7000
F 0 "P107" H 1100 7450 50  0000 C CNN
F 1 "T1" V 1200 7000 50  0000 C CNN
F 2 "Connect:RJ45_8" H 1100 7000 60  0001 C CNN
F 3 "" H 1100 7000 60  0000 C CNN
F 4 "609-1046-ND" H 1100 7000 60  0001 C CNN "Digikey code"
	1    1100 7000
	-1   0    0    -1  
$EndComp
$Comp
L GND #PWR021
U 1 1 56A04B89
P 1650 7400
F 0 "#PWR021" H 1650 7150 50  0001 C CNN
F 1 "GND" H 1650 7250 50  0000 C CNN
F 2 "" H 1650 7400 60  0000 C CNN
F 3 "" H 1650 7400 60  0000 C CNN
	1    1650 7400
	1    0    0    -1  
$EndComp
$Comp
L LTV-817 U104
U 1 1 56A19EE5
P 2350 4500
F 0 "U104" H 2250 4300 50  0000 L CNN
F 1 "LTV-817" H 2250 4700 50  0000 L CNN
F 2 "Housings_DIP:DIP-4_W7.62mm" H 2150 4300 50  0001 L CIN
F 3 "" H 2350 4400 50  0000 L CNN
	1    2350 4500
	1    0    0    -1  
$EndComp
Wire Wire Line
	1650 2000 800  2000
Connection ~ 2000 900 
Wire Wire Line
	1650 5850 2150 5850
Wire Wire Line
	1650 5950 2150 5950
Wire Wire Line
	2150 5950 2150 5850
Wire Wire Line
	1650 5550 2200 5550
Wire Wire Line
	1650 5650 2200 5650
Wire Wire Line
	1650 5250 2200 5250
Wire Wire Line
	1650 5350 2200 5350
Wire Wire Line
	1250 4100 1600 4100
Wire Wire Line
	1250 3600 1650 3600
Wire Wire Line
	1250 3700 1650 3700
Wire Wire Line
	1250 3800 1850 3800
Wire Wire Line
	1250 3900 1850 3900
Wire Wire Line
	1250 4000 1650 4000
Wire Wire Line
	1250 3500 1650 3500
Wire Wire Line
	3950 4150 4300 4150
Wire Wire Line
	3950 4050 4300 4050
Wire Wire Line
	3950 3550 4350 3550
Wire Wire Line
	3950 3650 4350 3650
Wire Wire Line
	3950 3450 4350 3450
Wire Wire Line
	4900 6850 5500 6850
Wire Wire Line
	4900 7150 5500 7150
Wire Wire Line
	6000 6850 6600 6850
Wire Wire Line
	6000 7150 6600 7150
Wire Wire Line
	6150 6000 5600 6000
Wire Wire Line
	6150 6100 5600 6100
Wire Wire Line
	6150 5500 5600 5500
Wire Wire Line
	6150 5600 5600 5600
Wire Wire Line
	8700 2650 8150 2650
Wire Wire Line
	8700 2750 8150 2750
Wire Wire Line
	8700 1750 8150 1750
Wire Wire Line
	8700 1850 8150 1850
Wire Wire Line
	6150 5000 5600 5000
Wire Wire Line
	6150 5100 5600 5100
Wire Wire Line
	10050 2950 10650 2950
Wire Wire Line
	10050 3050 10650 3050
Wire Wire Line
	10050 2050 10650 2050
Wire Wire Line
	10050 2150 10650 2150
Wire Wire Line
	7100 6000 8050 6000
Wire Wire Line
	7100 6100 8050 6100
Wire Wire Line
	7100 5500 8050 5500
Wire Wire Line
	7100 5600 8050 5600
Wire Wire Line
	10050 1150 10650 1150
Wire Wire Line
	10050 1250 10650 1250
Wire Wire Line
	5300 1050 4700 1050
Wire Wire Line
	5300 1150 4700 1150
Wire Wire Line
	5300 1250 4700 1250
Wire Wire Line
	5300 1500 4700 1500
Wire Wire Line
	5300 1600 4700 1600
Wire Wire Line
	5300 1850 4700 1850
Wire Wire Line
	6600 1050 7150 1050
Wire Wire Line
	6600 1150 7150 1150
Wire Wire Line
	6600 1250 7150 1250
Wire Wire Line
	6600 1500 7150 1500
Wire Wire Line
	6600 1600 7150 1600
Wire Wire Line
	3950 3950 4350 3950
Wire Wire Line
	10050 3850 10650 3850
Wire Wire Line
	10050 3950 10650 3950
Wire Wire Line
	10650 4750 10050 4750
Wire Wire Line
	10050 4850 10650 4850
Wire Wire Line
	8700 3550 8150 3550
Wire Wire Line
	8700 3650 8150 3650
Wire Wire Line
	8700 4450 8150 4450
Wire Wire Line
	8700 4550 8150 4550
Wire Wire Line
	3700 5950 3700 5700
Wire Wire Line
	3700 5700 3150 5700
Wire Wire Line
	3150 5600 3550 5600
Wire Wire Line
	3150 5500 3550 5500
Wire Wire Line
	8700 4650 8150 4650
Wire Wire Line
	2000 1400 2000 1600
Connection ~ 2000 1600
Wire Wire Line
	2000 1100 2000 900 
Wire Wire Line
	8700 1950 8150 1950
Wire Wire Line
	8700 2050 8150 2050
Wire Wire Line
	8700 2850 8150 2850
Wire Wire Line
	8700 2950 8150 2950
Wire Wire Line
	8700 4750 8150 4750
Wire Wire Line
	8700 3750 8150 3750
Wire Wire Line
	8700 3850 8150 3850
Wire Wire Line
	2700 1600 2700 1500
Wire Wire Line
	2600 1500 2600 1550
Wire Wire Line
	3000 2450 3100 2450
Wire Wire Line
	3050 1500 3050 2700
Connection ~ 3050 2450
Wire Wire Line
	2700 2450 2650 2450
Wire Wire Line
	3450 2450 3400 2450
Wire Wire Line
	3150 1500 3150 1650
Wire Wire Line
	3150 1650 3450 1650
Connection ~ 3450 2450
Wire Wire Line
	2950 1500 2950 1650
Wire Wire Line
	2950 1650 2650 1650
Connection ~ 2650 2450
Wire Wire Line
	1650 1600 2700 1600
Wire Wire Line
	2600 1550 2400 1550
Wire Wire Line
	2400 1550 2400 900 
Wire Wire Line
	1650 1350 1650 2000
Wire Wire Line
	8700 2150 8150 2150
Wire Wire Line
	8700 2250 8150 2250
Wire Wire Line
	8700 3050 8150 3050
Wire Wire Line
	8700 3150 8150 3150
Wire Wire Line
	8700 3950 8150 3950
Wire Wire Line
	8700 4050 8150 4050
Wire Wire Line
	8700 4850 8150 4850
Wire Wire Line
	8700 4950 8150 4950
Wire Wire Line
	10300 6000 10250 6000
Wire Wire Line
	10250 5900 10250 6050
Wire Wire Line
	10250 5600 10250 5700
Wire Wire Line
	10250 5700 10300 5700
Wire Wire Line
	10000 5600 10000 5800
Wire Wire Line
	10000 5800 10300 5800
Wire Wire Line
	8550 6000 8950 6000
Wire Wire Line
	8550 5800 8950 5800
Wire Wire Line
	8950 5900 8550 5900
Wire Wire Line
	10650 3600 10050 3600
Wire Wire Line
	10650 4500 10050 4500
Wire Wire Line
	10650 2700 10050 2700
Wire Wire Line
	10650 1800 10050 1800
Wire Wire Line
	6600 1850 7150 1850
Wire Wire Line
	6600 1950 7150 1950
Wire Wire Line
	6600 2050 7150 2050
Wire Wire Line
	6600 2150 7150 2150
Wire Wire Line
	6600 2250 7150 2250
Wire Wire Line
	10050 2800 10700 2800
Wire Wire Line
	10050 1900 10650 1900
Wire Wire Line
	10050 1000 10650 1000
Wire Wire Line
	10050 900  10650 900 
Wire Wire Line
	10050 3700 10650 3700
Wire Wire Line
	10050 4600 10650 4600
Wire Wire Line
	6600 2350 7150 2350
Wire Wire Line
	10050 4950 10600 4950
Wire Wire Line
	10050 4050 10600 4050
Wire Wire Line
	10050 3150 10600 3150
Wire Wire Line
	10050 2250 10600 2250
Wire Wire Line
	10050 1350 10600 1350
Wire Wire Line
	7100 5100 7500 5100
Wire Wire Line
	7100 5000 7500 5000
Wire Wire Line
	8150 950  8700 950 
Wire Wire Line
	8150 850  8700 850 
Wire Wire Line
	8150 1150 8700 1150
Wire Wire Line
	8150 1050 8700 1050
Wire Wire Line
	8150 1350 8700 1350
Wire Wire Line
	8150 1250 8700 1250
Wire Wire Line
	3450 950  4350 950 
Wire Wire Line
	3800 1050 3800 950 
Connection ~ 3800 950 
Wire Wire Line
	3800 1350 3800 1550
Wire Wire Line
	3800 1550 4200 1550
Wire Wire Line
	4000 1650 4000 1550
Connection ~ 4000 1550
Wire Wire Line
	3450 950  3450 1000
Connection ~ 3450 1650
Wire Wire Line
	4200 1550 4200 1350
Wire Wire Line
	4350 950  4350 750 
Wire Wire Line
	4200 1050 4200 950 
Connection ~ 4200 950 
Wire Wire Line
	800  1900 900  1900
Wire Wire Line
	900  1900 900  1550
Wire Wire Line
	900  900  900  1050
Wire Wire Line
	2650 1650 2650 2100
Wire Wire Line
	2650 2300 2650 2700
Wire Wire Line
	3450 2300 3450 2700
Wire Wire Line
	3450 1600 3450 2100
Wire Wire Line
	3000 1900 3100 1900
Connection ~ 3050 1900
Wire Wire Line
	2700 1900 2650 1900
Connection ~ 2650 1900
Wire Wire Line
	3400 1900 3450 1900
Connection ~ 3450 1900
Wire Wire Line
	1600 4100 1600 4250
Connection ~ 1600 4200
Wire Wire Line
	4300 4050 4300 4200
Connection ~ 4300 4150
Wire Wire Line
	1300 7350 1650 7350
Wire Wire Line
	1300 7250 1650 7250
Wire Wire Line
	1650 7250 1650 7400
Connection ~ 1650 7350
Wire Wire Line
	1300 7150 1700 7150
Wire Wire Line
	1300 7050 1700 7050
Wire Wire Line
	1300 6950 1700 6950
Wire Wire Line
	1300 6850 1700 6850
Wire Wire Line
	1300 6750 1700 6750
Wire Wire Line
	1300 6650 1700 6650
Wire Wire Line
	1850 3900 1850 4600
Wire Wire Line
	1850 3800 1850 3400
Wire Wire Line
	1850 3400 2100 3400
Wire Wire Line
	2100 3600 2050 3600
Wire Wire Line
	2700 3600 3100 3600
Wire Wire Line
	2650 4400 3150 4400
$Comp
L +5VD #PWR022
U 1 1 56A25455
P 3200 3350
F 0 "#PWR022" H 3200 3200 50  0001 C CNN
F 1 "+5VD" H 3200 3490 50  0000 C CNN
F 2 "" H 3200 3350 60  0000 C CNN
F 3 "" H 3200 3350 60  0000 C CNN
	1    3200 3350
	1    0    0    -1  
$EndComp
Wire Wire Line
	3050 3400 3200 3400
Wire Wire Line
	3200 3400 3200 3350
$Comp
L R R102
U 1 1 56A268B8
P 2900 3400
F 0 "R102" V 2800 3400 50  0000 C CNN
F 1 "1K" V 2900 3400 50  0000 C CNN
F 2 "Resistors_ThroughHole:Resistor_Horizontal_RM10mm" V 2830 3400 30  0001 C CNN
F 3 "" H 2900 3400 30  0000 C CNN
	1    2900 3400
	0    1    1    0   
$EndComp
Wire Wire Line
	2750 3400 2700 3400
Wire Wire Line
	1250 4200 1600 4200
Wire Wire Line
	2050 3600 2050 3650
Wire Wire Line
	1850 4600 2050 4600
$Comp
L GND #PWR023
U 1 1 56A292F5
P 1600 4250
F 0 "#PWR023" H 1600 4000 50  0001 C CNN
F 1 "GND" H 1600 4100 50  0000 C CNN
F 2 "" H 1600 4250 60  0000 C CNN
F 3 "" H 1600 4250 60  0000 C CNN
	1    1600 4250
	1    0    0    -1  
$EndComp
$Comp
L +5VD #PWR024
U 1 1 56A32C17
P 2650 4000
F 0 "#PWR024" H 2650 3850 50  0001 C CNN
F 1 "+5VD" H 2650 4140 50  0000 C CNN
F 2 "" H 2650 4000 60  0000 C CNN
F 3 "" H 2650 4000 60  0000 C CNN
	1    2650 4000
	1    0    0    -1  
$EndComp
Wire Wire Line
	2500 4050 2650 4050
Wire Wire Line
	2650 4050 2650 4000
$Comp
L R R104
U 1 1 56A32C1F
P 2350 4050
F 0 "R104" V 2250 4050 50  0000 C CNN
F 1 "1K" V 2350 4050 50  0000 C CNN
F 2 "Resistors_ThroughHole:Resistor_Horizontal_RM10mm" V 2280 4050 30  0001 C CNN
F 3 "" H 2350 4050 30  0000 C CNN
	1    2350 4050
	0    1    1    0   
$EndComp
Wire Wire Line
	2200 4050 2000 4050
Wire Wire Line
	2000 4050 2000 4400
Wire Wire Line
	2000 4400 2050 4400
Wire Wire Line
	2650 4600 2700 4600
Wire Wire Line
	2700 4600 2700 4650
Text Label 4000 3950 0    60   ~ 0
E2_Out+
Text Label 5400 4350 0    60   ~ 0
E2_RxGate
Text Label 5450 3550 0    60   ~ 0
E2_TxOn
$Comp
L GND #PWR025
U 1 1 56A495A8
P 5400 4600
F 0 "#PWR025" H 5400 4350 50  0001 C CNN
F 1 "GND" H 5400 4450 50  0000 C CNN
F 2 "" H 5400 4600 60  0000 C CNN
F 3 "" H 5400 4600 60  0000 C CNN
	1    5400 4600
	1    0    0    -1  
$EndComp
$Comp
L LTV-817 U101
U 1 1 56A495AE
P 5100 3450
F 0 "U101" H 5050 3250 50  0000 L CNN
F 1 "LTV-817" H 4950 3650 50  0000 L CNN
F 2 "Housings_DIP:DIP-4_W7.62mm" H 4900 3250 50  0001 L CIN
F 3 "" H 5100 3350 50  0000 L CNN
	1    5100 3450
	-1   0    0    -1  
$EndComp
$Comp
L LTV-817 U103
U 1 1 56A495B4
P 5050 4450
F 0 "U103" H 4950 4250 50  0000 L CNN
F 1 "LTV-817" H 4900 4650 50  0000 L CNN
F 2 "Housings_DIP:DIP-4_W7.62mm" H 4850 4250 50  0001 L CIN
F 3 "" H 5050 4350 50  0000 L CNN
	1    5050 4450
	1    0    0    -1  
$EndComp
Wire Wire Line
	3950 3750 4550 3750
Wire Wire Line
	3950 3850 4550 3850
Wire Wire Line
	4550 3850 4550 4550
Wire Wire Line
	4550 3750 4550 3350
Wire Wire Line
	4550 3350 4800 3350
Wire Wire Line
	4800 3550 4750 3550
Wire Wire Line
	5400 3550 5800 3550
Wire Wire Line
	5350 4350 5850 4350
$Comp
L +5VD #PWR026
U 1 1 56A495C2
P 5900 3300
F 0 "#PWR026" H 5900 3150 50  0001 C CNN
F 1 "+5VD" H 5900 3440 50  0000 C CNN
F 2 "" H 5900 3300 60  0000 C CNN
F 3 "" H 5900 3300 60  0000 C CNN
	1    5900 3300
	1    0    0    -1  
$EndComp
$Comp
L R R101
U 1 1 56A495CA
P 5600 3350
F 0 "R101" V 5500 3350 50  0000 C CNN
F 1 "1K" V 5600 3350 50  0000 C CNN
F 2 "Resistors_ThroughHole:Resistor_Horizontal_RM10mm" V 5530 3350 30  0001 C CNN
F 3 "" H 5600 3350 30  0000 C CNN
	1    5600 3350
	0    1    1    0   
$EndComp
Wire Wire Line
	5450 3350 5400 3350
Wire Wire Line
	4750 3550 4750 3600
Wire Wire Line
	4550 4550 4750 4550
$Comp
L +5VD #PWR027
U 1 1 56A495D3
P 5350 3950
F 0 "#PWR027" H 5350 3800 50  0001 C CNN
F 1 "+5VD" H 5350 4090 50  0000 C CNN
F 2 "" H 5350 3950 60  0000 C CNN
F 3 "" H 5350 3950 60  0000 C CNN
	1    5350 3950
	1    0    0    -1  
$EndComp
Wire Wire Line
	5200 4000 5350 4000
Wire Wire Line
	5350 4000 5350 3950
$Comp
L R R103
U 1 1 56A495DB
P 5050 4000
F 0 "R103" V 4950 4000 50  0000 C CNN
F 1 "1K" V 5050 4000 50  0000 C CNN
F 2 "Resistors_ThroughHole:Resistor_Horizontal_RM10mm" V 4980 4000 30  0001 C CNN
F 3 "" H 5050 4000 30  0000 C CNN
	1    5050 4000
	0    1    1    0   
$EndComp
Wire Wire Line
	4900 4000 4700 4000
Wire Wire Line
	4700 4000 4700 4350
Wire Wire Line
	4700 4350 4750 4350
Wire Wire Line
	5350 4550 5400 4550
Wire Wire Line
	5400 4550 5400 4600
Text Label 4750 1500 0    60   ~ 0
E1_RxGate
Text Label 4750 1600 0    60   ~ 0
E2_RxGate
Text Label 6700 1500 0    60   ~ 0
E1_TxOn
Text Label 6700 1600 0    60   ~ 0
E2_TxOn
$Comp
L GND #PWR028
U 1 1 56A60FAA
P 2050 3650
F 0 "#PWR028" H 2050 3400 50  0001 C CNN
F 1 "GND" H 2050 3500 50  0000 C CNN
F 2 "" H 2050 3650 60  0000 C CNN
F 3 "" H 2050 3650 60  0000 C CNN
	1    2050 3650
	1    0    0    -1  
$EndComp
$Comp
L GND #PWR029
U 1 1 56A61210
P 4750 3600
F 0 "#PWR029" H 4750 3350 50  0001 C CNN
F 1 "GND" H 4750 3450 50  0000 C CNN
F 2 "" H 4750 3600 60  0000 C CNN
F 3 "" H 4750 3600 60  0000 C CNN
	1    4750 3600
	1    0    0    -1  
$EndComp
Text Label 2550 7050 0    60   ~ 0
T2_TxOn
Text Label 2550 6950 0    60   ~ 0
T2_RxGate
Text Label 2550 6850 0    60   ~ 0
T2_In-
Text Label 2550 7150 0    60   ~ 0
T2_In+
Text Label 2550 6650 0    60   ~ 0
T2_Out-
Text Label 2550 6750 0    60   ~ 0
T2_Out+
$Comp
L CONN_01X08 P108
U 1 1 56A67B71
P 2300 7000
F 0 "P108" H 2300 7450 50  0000 C CNN
F 1 "T2" V 2400 7000 50  0000 C CNN
F 2 "Connect:RJ45_8" H 2300 7000 60  0001 C CNN
F 3 "" H 2300 7000 60  0000 C CNN
	1    2300 7000
	-1   0    0    -1  
$EndComp
$Comp
L GND #PWR030
U 1 1 56A67B77
P 2850 7400
F 0 "#PWR030" H 2850 7150 50  0001 C CNN
F 1 "GND" H 2850 7250 50  0000 C CNN
F 2 "" H 2850 7400 60  0000 C CNN
F 3 "" H 2850 7400 60  0000 C CNN
	1    2850 7400
	1    0    0    -1  
$EndComp
Wire Wire Line
	2500 7350 2850 7350
Wire Wire Line
	2500 7250 2850 7250
Wire Wire Line
	2850 7250 2850 7400
Connection ~ 2850 7350
Wire Wire Line
	2500 7150 2900 7150
Wire Wire Line
	2500 7050 2900 7050
Wire Wire Line
	2500 6950 2900 6950
Wire Wire Line
	2500 6850 2900 6850
Wire Wire Line
	2500 6750 2900 6750
Wire Wire Line
	2500 6650 2900 6650
Text Label 3700 7050 0    60   ~ 0
T3_TxOn
Text Label 3700 6950 0    60   ~ 0
T3_RxGate
Text Label 3700 6850 0    60   ~ 0
T3_In-
Text Label 3700 7150 0    60   ~ 0
T3_In+
Text Label 3700 6650 0    60   ~ 0
T3_Out-
Text Label 3700 6750 0    60   ~ 0
T3_Out+
$Comp
L CONN_01X08 P109
U 1 1 56A67DFD
P 3450 7000
F 0 "P109" H 3450 7450 50  0000 C CNN
F 1 "T3" V 3550 7000 50  0000 C CNN
F 2 "Connect:RJ45_8" H 3450 7000 60  0001 C CNN
F 3 "" H 3450 7000 60  0000 C CNN
	1    3450 7000
	-1   0    0    -1  
$EndComp
$Comp
L GND #PWR031
U 1 1 56A67E03
P 4000 7400
F 0 "#PWR031" H 4000 7150 50  0001 C CNN
F 1 "GND" H 4000 7250 50  0000 C CNN
F 2 "" H 4000 7400 60  0000 C CNN
F 3 "" H 4000 7400 60  0000 C CNN
	1    4000 7400
	1    0    0    -1  
$EndComp
Wire Wire Line
	3650 7350 4000 7350
Wire Wire Line
	3650 7250 4000 7250
Wire Wire Line
	4000 7250 4000 7400
Connection ~ 4000 7350
Wire Wire Line
	3650 7150 4050 7150
Wire Wire Line
	3650 7050 4050 7050
Wire Wire Line
	3650 6950 4050 6950
Wire Wire Line
	3650 6850 4050 6850
Wire Wire Line
	3650 6750 4050 6750
Wire Wire Line
	3650 6650 4050 6650
Text Label 4800 1050 0    60   ~ 0
T1_RxGate
Text Label 4800 1150 0    60   ~ 0
T2_RxGate
Text Label 4800 1250 0    60   ~ 0
T3_RxGate
Text Label 6750 1050 0    60   ~ 0
T1_TxOn
Text Label 6750 1150 0    60   ~ 0
T2_TxOn
Text Label 6750 1250 0    60   ~ 0
T3_TxOn
$Comp
L GND #PWR032
U 1 1 56A91C8D
P 5250 7400
F 0 "#PWR032" H 5250 7150 50  0001 C CNN
F 1 "GND" H 5250 7250 50  0000 C CNN
F 2 "" H 5250 7400 60  0000 C CNN
F 3 "" H 5250 7400 60  0000 C CNN
	1    5250 7400
	1    0    0    -1  
$EndComp
Wire Wire Line
	4900 7350 5250 7350
Wire Wire Line
	4900 7250 5250 7250
Wire Wire Line
	5250 7250 5250 7400
Connection ~ 5250 7350
$Comp
L GND #PWR033
U 1 1 56A91ED4
P 6350 7400
F 0 "#PWR033" H 6350 7150 50  0001 C CNN
F 1 "GND" H 6350 7250 50  0000 C CNN
F 2 "" H 6350 7400 60  0000 C CNN
F 3 "" H 6350 7400 60  0000 C CNN
	1    6350 7400
	1    0    0    -1  
$EndComp
Wire Wire Line
	6000 7350 6350 7350
Wire Wire Line
	6000 7250 6350 7250
Wire Wire Line
	6350 7250 6350 7400
Connection ~ 6350 7350
$Comp
L L_Small L101
U 1 1 56A98D5A
P 1100 900
F 0 "L101" V 1050 800 50  0000 L CNN
F 1 "100uH" V 1200 800 50  0000 L CNN
F 2 "Inductors:INDUCTOR_V" H 1100 900 60  0001 C CNN
F 3 "" H 1100 900 60  0000 C CNN
	1    1100 900 
	0    -1   -1   0   
$EndComp
Wire Wire Line
	1000 900  900  900 
Connection ~ 1650 900 
Wire Wire Line
	1650 750  1650 1050
Wire Wire Line
	2400 900  1200 900 
Wire Wire Line
	5750 3350 5900 3350
Wire Wire Line
	5900 3350 5900 3300
$Comp
L CP C107
U 1 1 56A09601
P 2850 1900
F 0 "C107" H 2875 2000 50  0000 L CNN
F 1 "10u" H 2875 1800 50  0000 L CNN
F 2 "w_capacitors:CP_6.3x7mm" H 2888 1750 30  0001 C CNN
F 3 "" H 2850 1900 60  0000 C CNN
	1    2850 1900
	0    1    1    0   
$EndComp
$Comp
L CP C108
U 1 1 56A0A19A
P 3250 1900
F 0 "C108" H 3275 2000 50  0000 L CNN
F 1 "10u" H 3275 1800 50  0000 L CNN
F 2 "w_capacitors:CP_6.3x7mm" H 3288 1750 30  0001 C CNN
F 3 "" H 3250 1900 60  0000 C CNN
	1    3250 1900
	0    1    1    0   
$EndComp
$Comp
L CP C104
U 1 1 56A0AA6D
P 3800 1200
F 0 "C104" H 3825 1300 50  0000 L CNN
F 1 "47u" H 3825 1100 50  0000 L CNN
F 2 "w_capacitors:CP_6.3x7mm" H 3838 1050 30  0001 C CNN
F 3 "" H 3800 1200 60  0000 C CNN
	1    3800 1200
	1    0    0    -1  
$EndComp
$Comp
L GNDPWR #PWR034
U 1 1 56A0624B
P 1350 2200
F 0 "#PWR034" H 1350 2000 50  0001 C CNN
F 1 "GNDPWR" H 1350 2070 50  0000 C CNN
F 2 "" H 1350 2150 60  0000 C CNN
F 3 "" H 1350 2150 60  0000 C CNN
	1    1350 2200
	1    0    0    -1  
$EndComp
$Sheet
S 6750 3000 850  600 
U 56A22385
F0 "filtering" 60
F1 "filtering.sch" 60
$EndSheet
$Comp
L LED D101
U 1 1 56A687DF
P 1350 1650
F 0 "D101" H 1350 1750 50  0000 C CNN
F 1 "LED RED" H 1350 1550 50  0000 C CNN
F 2 "LEDs:LED-5MM" H 1350 1650 60  0001 C CNN
F 3 "" H 1350 1650 60  0000 C CNN
	1    1350 1650
	0    -1   -1   0   
$EndComp
$Comp
L R R105
U 1 1 56A687E6
P 1350 1200
F 0 "R105" V 1250 1200 50  0000 C CNN
F 1 "3K2" V 1350 1200 50  0000 C CNN
F 2 "Resistors_ThroughHole:Resistor_Horizontal_RM10mm" V 1280 1200 30  0001 C CNN
F 3 "" H 1350 1200 30  0000 C CNN
	1    1350 1200
	1    0    0    -1  
$EndComp
Connection ~ 1650 1600
Wire Wire Line
	1350 1050 1350 900 
Connection ~ 1350 900 
Wire Wire Line
	1350 1350 1350 1450
Wire Wire Line
	1350 1850 1350 2200
Connection ~ 1350 2000
$Comp
L CONN_01X01 TP101
U 1 1 56A7A684
P 850 2700
F 0 "TP101" H 850 2800 50  0000 C CNN
F 1 "CONN_01X01" V 950 2700 50  0001 C CNN
F 2 "w_pin_strip:pin_strip_1" H 850 2700 60  0001 C CNN
F 3 "" H 850 2700 60  0000 C CNN
	1    850  2700
	0    -1   -1   0   
$EndComp
$Comp
L CONN_01X01 TP102
U 1 1 56A7F0C4
P 1050 2700
F 0 "TP102" H 1050 2800 50  0000 C CNN
F 1 "CONN_01X01" V 1150 2700 50  0001 C CNN
F 2 "w_pin_strip:pin_strip_1" H 1050 2700 60  0001 C CNN
F 3 "" H 1050 2700 60  0000 C CNN
	1    1050 2700
	0    -1   -1   0   
$EndComp
$Comp
L CONN_01X01 TP103
U 1 1 56A7F346
P 1250 2700
F 0 "TP103" H 1250 2800 50  0000 C CNN
F 1 "CONN_01X01" V 1350 2700 50  0001 C CNN
F 2 "w_pin_strip:pin_strip_1" H 1250 2700 60  0001 C CNN
F 3 "" H 1250 2700 60  0000 C CNN
	1    1250 2700
	0    -1   -1   0   
$EndComp
$Comp
L GND #PWR035
U 1 1 56A7FA53
P 1150 2950
F 0 "#PWR035" H 1150 2700 50  0001 C CNN
F 1 "GND" H 1150 2800 50  0000 C CNN
F 2 "" H 1150 2950 60  0000 C CNN
F 3 "" H 1150 2950 60  0000 C CNN
	1    1150 2950
	1    0    0    -1  
$EndComp
$Comp
L GNDPWR #PWR036
U 1 1 56A82A6A
P 850 2950
F 0 "#PWR036" H 850 2750 50  0001 C CNN
F 1 "GNDPWR" H 850 2820 50  0000 C CNN
F 2 "" H 850 2900 60  0000 C CNN
F 3 "" H 850 2900 60  0000 C CNN
	1    850  2950
	1    0    0    -1  
$EndComp
Wire Wire Line
	850  2900 850  2950
Wire Wire Line
	1050 2900 1050 2950
Wire Wire Line
	1050 2950 1250 2950
Wire Wire Line
	1250 2950 1250 2900
Connection ~ 1150 2950
$Comp
L CONN_01X01 TP104
U 1 1 56A8D044
P 1450 2700
F 0 "TP104" H 1450 2800 50  0000 C CNN
F 1 "CONN_01X01" V 1550 2700 50  0001 C CNN
F 2 "w_pin_strip:pin_strip_1" H 1450 2700 60  0001 C CNN
F 3 "" H 1450 2700 60  0000 C CNN
	1    1450 2700
	0    -1   -1   0   
$EndComp
$Comp
L CONN_01X01 TP105
U 1 1 56A8D2C8
P 1650 2700
F 0 "TP105" H 1650 2800 50  0000 C CNN
F 1 "CONN_01X01" V 1750 2700 50  0001 C CNN
F 2 "w_pin_strip:pin_strip_1" H 1650 2700 60  0001 C CNN
F 3 "" H 1650 2700 60  0000 C CNN
	1    1650 2700
	0    -1   -1   0   
$EndComp
$Comp
L -5VA #PWR124
U 1 1 56A8DE87
P 1450 2950
F 0 "#PWR124" H 1450 3050 50  0001 C CNN
F 1 "-5VA" H 1450 3100 50  0000 C CNN
F 2 "" H 1450 2950 60  0000 C CNN
F 3 "" H 1450 2950 60  0000 C CNN
	1    1450 2950
	-1   0    0    1   
$EndComp
$Comp
L +5VA #PWR037
U 1 1 56A91ED3
P 1650 2950
F 0 "#PWR037" H 1650 2800 50  0001 C CNN
F 1 "+5VA" H 1650 3090 50  0000 C CNN
F 2 "" H 1650 2950 60  0000 C CNN
F 3 "" H 1650 2950 60  0000 C CNN
	1    1650 2950
	-1   0    0    1   
$EndComp
Wire Wire Line
	1650 2900 1650 2950
Wire Wire Line
	1450 2900 1450 2950
$Comp
L CONN_01X01 TP106
U 1 1 56A94624
P 1850 2700
F 0 "TP106" H 1850 2800 50  0000 C CNN
F 1 "CONN_01X01" V 1950 2700 50  0001 C CNN
F 2 "w_pin_strip:pin_strip_1" H 1850 2700 60  0001 C CNN
F 3 "" H 1850 2700 60  0000 C CNN
	1    1850 2700
	0    -1   -1   0   
$EndComp
$Comp
L +5VD #PWR038
U 1 1 56A94A38
P 1850 2950
F 0 "#PWR038" H 1850 2800 50  0001 C CNN
F 1 "+5VD" H 1850 3090 50  0000 C CNN
F 2 "" H 1850 2950 60  0000 C CNN
F 3 "" H 1850 2950 60  0000 C CNN
	1    1850 2950
	-1   0    0    1   
$EndComp
Wire Wire Line
	1850 2950 1850 2900
Wire Wire Line
	10300 5900 10250 5900
Connection ~ 10250 6000
$Comp
L GND #PWR?
U 1 1 56A670E1
P 8150 3250
F 0 "#PWR?" H 8150 3000 50  0001 C CNN
F 1 "GND" H 8150 3100 50  0000 C CNN
F 2 "" H 8150 3250 60  0000 C CNN
F 3 "" H 8150 3250 60  0000 C CNN
	1    8150 3250
	1    0    0    -1  
$EndComp
Wire Wire Line
	8150 3050 8150 3250
Connection ~ 8150 3150
$Comp
L GND #PWR?
U 1 1 56A686F2
P 8150 2350
F 0 "#PWR?" H 8150 2100 50  0001 C CNN
F 1 "GND" H 8150 2200 50  0000 C CNN
F 2 "" H 8150 2350 60  0000 C CNN
F 3 "" H 8150 2350 60  0000 C CNN
	1    8150 2350
	1    0    0    -1  
$EndComp
Wire Wire Line
	8150 2150 8150 2350
Connection ~ 8150 2250
$Comp
L GND #PWR?
U 1 1 56A694C9
P 8150 4150
F 0 "#PWR?" H 8150 3900 50  0001 C CNN
F 1 "GND" H 8150 4000 50  0000 C CNN
F 2 "" H 8150 4150 60  0000 C CNN
F 3 "" H 8150 4150 60  0000 C CNN
	1    8150 4150
	1    0    0    -1  
$EndComp
$Comp
L GND #PWR?
U 1 1 56A6AF68
P 8150 5050
F 0 "#PWR?" H 8150 4800 50  0001 C CNN
F 1 "GND" H 8150 4900 50  0000 C CNN
F 2 "" H 8150 5050 60  0000 C CNN
F 3 "" H 8150 5050 60  0000 C CNN
	1    8150 5050
	1    0    0    -1  
$EndComp
Wire Wire Line
	8150 3950 8150 4150
Connection ~ 8150 4050
Wire Wire Line
	8150 4850 8150 5050
Connection ~ 8150 4950
$EndSCHEMATC
