(export (version D)
  (design
    (source //briaeros/Progetti/Radio-muxer/radio-adapter.sch)
    (date "26/01/2016 18:37:46")
    (tool "Eeschema 4.0.0-rc1-stable")
    (sheet (number 1) (name /) (tstamps /)
      (title_block
        (title "Adattatore TB7100")
        (company "distelco s.r.l.")
        (rev 2)
        (date 2016-01-14)
        (source radio-adapter.sch)
        (comment (number 1) (value ""))
        (comment (number 2) (value ""))
        (comment (number 3) (value ""))
        (comment (number 4) (value "")))))
  (components
    (comp (ref J1)
      (value RADIO)
      (footprint Connect:DB25MC)
      (libsource (lib conn) (part DB25))
      (sheetpath (names /) (tstamps /))
      (tstamp 5696DA56))
    (comp (ref J2)
      (value RJ45)
      (footprint Connect:RJ45_8)
      (libsource (lib conn) (part RJ45))
      (sheetpath (names /) (tstamps /))
      (tstamp 5696DA5D))
    (comp (ref R1)
      (value 3K3)
      (footprint Resistors_ThroughHole:Resistor_Horizontal_RM10mm)
      (libsource (lib device) (part R))
      (sheetpath (names /) (tstamps /))
      (tstamp 569DF31D))
    (comp (ref D1)
      (value LED)
      (footprint LEDs:LED-5MM)
      (libsource (lib device) (part LED))
      (sheetpath (names /) (tstamps /))
      (tstamp 569DF3A4))
    (comp (ref TP1)
      (value CONN_01X01)
      (footprint w_pin_strip:pin_strip_1)
      (libsource (lib conn) (part CONN_01X01))
      (sheetpath (names /) (tstamps /))
      (tstamp 56A7AEB5)))
  (libparts
    (libpart (lib device) (part LED)
      (footprints
        (fp LED-3MM)
        (fp LED-5MM)
        (fp LED-10MM)
        (fp LED-0603)
        (fp LED-0805)
        (fp LED-1206)
        (fp LEDV))
      (fields
        (field (name Reference) D)
        (field (name Value) LED))
      (pins
        (pin (num 1) (name K) (type passive))
        (pin (num 2) (name A) (type passive))))
    (libpart (lib device) (part R)
      (description Resistor)
      (footprints
        (fp R_*)
        (fp Resistor_*))
      (fields
        (field (name Reference) R)
        (field (name Value) R))
      (pins
        (pin (num 1) (name ~) (type passive))
        (pin (num 2) (name ~) (type passive))))
    (libpart (lib conn) (part DB25)
      (footprints
        (fp DB25*))
      (fields
        (field (name Reference) J)
        (field (name Value) DB25))
      (pins
        (pin (num 1) (name 1) (type passive))
        (pin (num 2) (name 2) (type passive))
        (pin (num 3) (name 3) (type passive))
        (pin (num 4) (name 4) (type passive))
        (pin (num 5) (name 5) (type passive))
        (pin (num 6) (name 6) (type passive))
        (pin (num 7) (name 7) (type passive))
        (pin (num 8) (name 8) (type passive))
        (pin (num 9) (name 9) (type passive))
        (pin (num 10) (name 10) (type passive))
        (pin (num 11) (name 11) (type passive))
        (pin (num 12) (name 12) (type passive))
        (pin (num 13) (name 13) (type passive))
        (pin (num 14) (name P14) (type passive))
        (pin (num 15) (name P15) (type passive))
        (pin (num 16) (name P16) (type passive))
        (pin (num 17) (name P17) (type passive))
        (pin (num 18) (name P18) (type passive))
        (pin (num 19) (name P19) (type passive))
        (pin (num 20) (name P20) (type passive))
        (pin (num 21) (name P21) (type passive))
        (pin (num 22) (name P22) (type passive))
        (pin (num 23) (name P23) (type passive))
        (pin (num 24) (name P24) (type passive))
        (pin (num 25) (name P25) (type passive))))
    (libpart (lib conn) (part RJ45)
      (fields
        (field (name Reference) J)
        (field (name Value) RJ45))
      (pins
        (pin (num 1) (name ~) (type passive))
        (pin (num 2) (name ~) (type passive))
        (pin (num 3) (name ~) (type passive))
        (pin (num 4) (name ~) (type passive))
        (pin (num 5) (name ~) (type passive))
        (pin (num 6) (name ~) (type passive))
        (pin (num 7) (name ~) (type passive))
        (pin (num 8) (name ~) (type passive))
        (pin (num 9) (name SHIELD) (type passive))))
    (libpart (lib conn) (part CONN_01X01)
      (footprints
        (fp Pin_Header_Straight_1X01)
        (fp Pin_Header_Angled_1X01)
        (fp Socket_Strip_Straight_1X01)
        (fp Socket_Strip_Angled_1X01))
      (fields
        (field (name Reference) P)
        (field (name Value) CONN_01X01))
      (pins
        (pin (num 1) (name P1) (type passive)))))
  (libraries
    (library (logical conn)
      (uri "C:\\Program Files (x86)\\KiCad\\share\\kicad\\library\\conn.lib"))
    (library (logical device)
      (uri "C:\\Program Files (x86)\\KiCad\\share\\kicad\\library\\device.lib")))
  (nets
    (net (code 1) (name "Net-(J1-Pad18)")
      (node (ref J1) (pin 18)))
    (net (code 2) (name /aIn-)
      (node (ref J1) (pin 8))
      (node (ref J2) (pin 3)))
    (net (code 3) (name /aIn+)
      (node (ref J2) (pin 6))
      (node (ref J1) (pin 5)))
    (net (code 4) (name /RxGate)
      (node (ref J2) (pin 5))
      (node (ref J1) (pin 14)))
    (net (code 5) (name /TxOn)
      (node (ref J1) (pin 15))
      (node (ref J2) (pin 4)))
    (net (code 6) (name /aOut+)
      (node (ref J1) (pin 1))
      (node (ref J2) (pin 2)))
    (net (code 7) (name "Net-(J1-Pad25)")
      (node (ref J1) (pin 25))
      (node (ref R1) (pin 2)))
    (net (code 8) (name "Net-(J2-Pad9)")
      (node (ref J2) (pin 9)))
    (net (code 9) (name "Net-(J1-Pad2)")
      (node (ref J1) (pin 2)))
    (net (code 10) (name "Net-(J1-Pad3)")
      (node (ref J1) (pin 3)))
    (net (code 11) (name "Net-(J1-Pad6)")
      (node (ref J1) (pin 6)))
    (net (code 12) (name "Net-(J1-Pad19)")
      (node (ref J1) (pin 19)))
    (net (code 13) (name "Net-(J1-Pad7)")
      (node (ref J1) (pin 7)))
    (net (code 14) (name "Net-(J1-Pad9)")
      (node (ref J1) (pin 9)))
    (net (code 15) (name "Net-(J1-Pad22)")
      (node (ref J1) (pin 22)))
    (net (code 16) (name "Net-(J1-Pad10)")
      (node (ref J1) (pin 10)))
    (net (code 17) (name "Net-(J1-Pad23)")
      (node (ref J1) (pin 23)))
    (net (code 18) (name "Net-(J1-Pad11)")
      (node (ref J1) (pin 11)))
    (net (code 19) (name "Net-(J1-Pad24)")
      (node (ref J1) (pin 24)))
    (net (code 20) (name "Net-(J1-Pad12)")
      (node (ref J1) (pin 12)))
    (net (code 21) (name "Net-(D1-Pad2)")
      (node (ref D1) (pin 2))
      (node (ref R1) (pin 1)))
    (net (code 22) (name "Net-(J1-Pad20)")
      (node (ref J1) (pin 20)))
    (net (code 23) (name "Net-(J1-Pad21)")
      (node (ref J1) (pin 21)))
    (net (code 24) (name GND)
      (node (ref TP1) (pin 1))
      (node (ref J2) (pin 8))
      (node (ref J2) (pin 7))
      (node (ref D1) (pin 1))
      (node (ref J1) (pin 13)))
    (net (code 25) (name "Net-(J1-Pad16)")
      (node (ref J1) (pin 16)))
    (net (code 26) (name "Net-(J1-Pad17)")
      (node (ref J1) (pin 17)))
    (net (code 27) (name /aOut-)
      (node (ref J2) (pin 1))
      (node (ref J1) (pin 4)))))