%TF.GenerationSoftware,KiCad,Pcbnew,4.0.0-rc1-stable*%
%TF.CreationDate,2016-01-27T11:55:09+01:00*%
%TF.JobID,radio-muxer,726164696F2D6D757865722E6B696361,5*%
%TF.FileFunction,Copper,L1,Top,Signal*%
%FSLAX46Y46*%
G04 Gerber Fmt 4.6, Leading zero omitted, Abs format (unit mm)*
G04 Created by KiCad (PCBNEW 4.0.0-rc1-stable) date 27/01/2016 11:55:09*
%MOMM*%
G01*
G04 APERTURE LIST*
%ADD10C,0.100000*%
%ADD11C,1.600000*%
%ADD12O,2.199640X1.501140*%
%ADD13C,3.649980*%
%ADD14R,1.501140X1.501140*%
%ADD15C,1.501140*%
%ADD16O,1.600000X1.600000*%
%ADD17R,1.905000X1.905000*%
%ADD18C,1.905000*%
%ADD19R,1.727200X1.727200*%
%ADD20O,1.727200X1.727200*%
%ADD21C,1.727200*%
%ADD22C,1.998980*%
%ADD23C,2.500000*%
%ADD24R,1.600000X1.600000*%
%ADD25R,2.197100X1.600200*%
%ADD26O,2.199640X1.600200*%
%ADD27R,1.998980X1.998980*%
%ADD28R,3.000000X1.600000*%
%ADD29C,1.800000*%
%ADD30R,1.524000X2.199640*%
%ADD31O,1.524000X2.199640*%
%ADD32R,2.199640X1.524000*%
%ADD33O,2.199640X1.524000*%
%ADD34R,2.000000X1.900000*%
%ADD35C,1.900000*%
%ADD36R,1.524000X1.524000*%
%ADD37C,0.800000*%
%ADD38C,0.500000*%
%ADD39C,0.250000*%
G04 APERTURE END LIST*
D10*
D11*
X110170000Y-91270000D03*
X112710000Y-91270000D03*
X115250000Y-91270000D03*
X117790000Y-91270000D03*
X120330000Y-91270000D03*
X122870000Y-91270000D03*
X125410000Y-91270000D03*
X125410000Y-83650000D03*
X122870000Y-83650000D03*
X120330000Y-83650000D03*
X117790000Y-83650000D03*
X115250000Y-83650000D03*
X112710000Y-83650000D03*
X110170000Y-83650000D03*
X110170000Y-106510000D03*
X112710000Y-106510000D03*
X115250000Y-106510000D03*
X117790000Y-106510000D03*
X120330000Y-106510000D03*
X122870000Y-106510000D03*
X125410000Y-106510000D03*
X125410000Y-98890000D03*
X122870000Y-98890000D03*
X120330000Y-98890000D03*
X117790000Y-98890000D03*
X115250000Y-98890000D03*
X112710000Y-98890000D03*
X110170000Y-98890000D03*
X110170000Y-121750000D03*
X112710000Y-121750000D03*
X115250000Y-121750000D03*
X117790000Y-121750000D03*
X120330000Y-121750000D03*
X122870000Y-121750000D03*
X125410000Y-121750000D03*
X125410000Y-114130000D03*
X122870000Y-114130000D03*
X120330000Y-114130000D03*
X117790000Y-114130000D03*
X115250000Y-114130000D03*
X112710000Y-114130000D03*
X110170000Y-114130000D03*
X87310000Y-106510000D03*
X89850000Y-106510000D03*
X92390000Y-106510000D03*
X94930000Y-106510000D03*
X97470000Y-106510000D03*
X100010000Y-106510000D03*
X102550000Y-106510000D03*
X102550000Y-98890000D03*
X100010000Y-98890000D03*
X97470000Y-98890000D03*
X94930000Y-98890000D03*
X92390000Y-98890000D03*
X89850000Y-98890000D03*
X87310000Y-98890000D03*
X87310000Y-121750000D03*
X89850000Y-121750000D03*
X92390000Y-121750000D03*
X94930000Y-121750000D03*
X97470000Y-121750000D03*
X100010000Y-121750000D03*
X102550000Y-121750000D03*
X102550000Y-114130000D03*
X100010000Y-114130000D03*
X97470000Y-114130000D03*
X94930000Y-114130000D03*
X92390000Y-114130000D03*
X89850000Y-114130000D03*
X87310000Y-114130000D03*
X64450000Y-91270000D03*
X66990000Y-91270000D03*
X69530000Y-91270000D03*
X72070000Y-91270000D03*
X74610000Y-91270000D03*
X77150000Y-91270000D03*
X79690000Y-91270000D03*
X79690000Y-83650000D03*
X77150000Y-83650000D03*
X74610000Y-83650000D03*
X72070000Y-83650000D03*
X69530000Y-83650000D03*
X66990000Y-83650000D03*
X64450000Y-83650000D03*
X64450000Y-106510000D03*
X66990000Y-106510000D03*
X69530000Y-106510000D03*
X72070000Y-106510000D03*
X74610000Y-106510000D03*
X77150000Y-106510000D03*
X79690000Y-106510000D03*
X79690000Y-98890000D03*
X77150000Y-98890000D03*
X74610000Y-98890000D03*
X72070000Y-98890000D03*
X69530000Y-98890000D03*
X66990000Y-98890000D03*
X64450000Y-98890000D03*
X64450000Y-136990000D03*
X66990000Y-136990000D03*
X69530000Y-136990000D03*
X72070000Y-136990000D03*
X74610000Y-136990000D03*
X77150000Y-136990000D03*
X79690000Y-136990000D03*
X79690000Y-129370000D03*
X77150000Y-129370000D03*
X74610000Y-129370000D03*
X72070000Y-129370000D03*
X69530000Y-129370000D03*
X66990000Y-129370000D03*
X64450000Y-129370000D03*
X64450000Y-121750000D03*
X66990000Y-121750000D03*
X69530000Y-121750000D03*
X72070000Y-121750000D03*
X74610000Y-121750000D03*
X77150000Y-121750000D03*
X79690000Y-121750000D03*
X79690000Y-114130000D03*
X77150000Y-114130000D03*
X74610000Y-114130000D03*
X72070000Y-114130000D03*
X69530000Y-114130000D03*
X66990000Y-114130000D03*
X64450000Y-114130000D03*
D12*
X173990000Y-141605000D03*
X173990000Y-139065000D03*
X173990000Y-136525000D03*
X173990000Y-133985000D03*
X173990000Y-131445000D03*
X173990000Y-128905000D03*
X173990000Y-126365000D03*
X173990000Y-123825000D03*
X173990000Y-121285000D03*
X173990000Y-118745000D03*
X173990000Y-116205000D03*
X173990000Y-113665000D03*
X173990000Y-111125000D03*
X173990000Y-108585000D03*
X173990000Y-106045000D03*
X173990000Y-103505000D03*
X173990000Y-100965000D03*
X173990000Y-98425000D03*
X173990000Y-95885000D03*
X173990000Y-93345000D03*
X158750000Y-93345000D03*
X158750000Y-95885000D03*
X158750000Y-98425000D03*
X158750000Y-100965000D03*
X158750000Y-103505000D03*
X158750000Y-106045000D03*
X158750000Y-108585000D03*
X158750000Y-111125000D03*
X158750000Y-113665000D03*
X158750000Y-116205000D03*
X158750000Y-118745000D03*
X158750000Y-121285000D03*
X158750000Y-123825000D03*
X158750000Y-126365000D03*
X158750000Y-128905000D03*
X158750000Y-131445000D03*
X158750000Y-133985000D03*
X158750000Y-136525000D03*
X158750000Y-139065000D03*
X158750000Y-141605000D03*
D13*
X114838520Y-157310000D03*
X102969100Y-157310000D03*
D14*
X104455000Y-150960000D03*
D15*
X105725000Y-148420000D03*
X106995000Y-150960000D03*
X108265000Y-148420000D03*
X109535000Y-150960000D03*
X110805000Y-148420000D03*
X112075000Y-150960000D03*
X113345000Y-148420000D03*
D13*
X79278520Y-157310000D03*
X67409100Y-157310000D03*
D14*
X68895000Y-150960000D03*
D15*
X70165000Y-148420000D03*
X71435000Y-150960000D03*
X72705000Y-148420000D03*
X73975000Y-150960000D03*
X75245000Y-148420000D03*
X76515000Y-150960000D03*
X77785000Y-148420000D03*
D13*
X151033520Y-157310000D03*
X139164100Y-157310000D03*
D14*
X140650000Y-150960000D03*
D15*
X141920000Y-148420000D03*
X143190000Y-150960000D03*
X144460000Y-148420000D03*
X145730000Y-150960000D03*
X147000000Y-148420000D03*
X148270000Y-150960000D03*
X149540000Y-148420000D03*
X115250000Y-125560000D03*
X112710000Y-125560000D03*
D16*
X73340000Y-67140000D03*
X73340000Y-69680000D03*
X73340000Y-72220000D03*
X73340000Y-74760000D03*
X80960000Y-74760000D03*
X80960000Y-72220000D03*
X80960000Y-69680000D03*
X80960000Y-67140000D03*
D17*
X143190000Y-55710000D03*
D18*
X143190000Y-60790000D03*
D16*
X110170000Y-136990000D03*
X112710000Y-136990000D03*
X115250000Y-136990000D03*
X117790000Y-136990000D03*
X120330000Y-136990000D03*
X122870000Y-136990000D03*
X125410000Y-136990000D03*
X125410000Y-129370000D03*
X122870000Y-129370000D03*
X120330000Y-129370000D03*
X117790000Y-129370000D03*
X115250000Y-129370000D03*
X112710000Y-129370000D03*
X110170000Y-129370000D03*
X135570000Y-125560000D03*
X135570000Y-128100000D03*
X135570000Y-130640000D03*
X135570000Y-133180000D03*
X143190000Y-133180000D03*
X143190000Y-130640000D03*
X143190000Y-128100000D03*
X143190000Y-125560000D03*
D19*
X180020000Y-125560000D03*
D20*
X182560000Y-125560000D03*
X180020000Y-128100000D03*
X182560000Y-128100000D03*
X180020000Y-130640000D03*
D21*
X182560000Y-130640000D03*
D22*
X182560000Y-95080000D03*
X182560000Y-105240000D03*
X178750000Y-95080000D03*
X178750000Y-105240000D03*
X186370000Y-125560000D03*
X186370000Y-135720000D03*
X181260000Y-49370000D03*
X181260000Y-44290000D03*
X143190000Y-70950000D03*
X143190000Y-65870000D03*
X143190000Y-79840000D03*
X143190000Y-74760000D03*
D23*
X181260000Y-35830000D03*
X176260000Y-35830000D03*
X193990000Y-74840000D03*
X193990000Y-84840000D03*
X193990000Y-79840000D03*
D24*
X178010000Y-55830000D03*
D11*
X180510000Y-55830000D03*
D25*
X163260000Y-51210000D03*
D26*
X163260000Y-53750000D03*
X163260000Y-58830000D03*
X163260000Y-61370000D03*
X163260000Y-63910000D03*
D16*
X58100000Y-67140000D03*
X58100000Y-69680000D03*
X58100000Y-72220000D03*
X58100000Y-74760000D03*
X65720000Y-74760000D03*
X65720000Y-72220000D03*
X65720000Y-69680000D03*
X65720000Y-67140000D03*
X124140000Y-67140000D03*
X124140000Y-69680000D03*
X124140000Y-72220000D03*
X124140000Y-74760000D03*
X131760000Y-74760000D03*
X131760000Y-72220000D03*
X131760000Y-69680000D03*
X131760000Y-67140000D03*
X108900000Y-67140000D03*
X108900000Y-69680000D03*
X108900000Y-72220000D03*
X108900000Y-74760000D03*
X116520000Y-74760000D03*
X116520000Y-72220000D03*
X116520000Y-69680000D03*
X116520000Y-67140000D03*
X94930000Y-131910000D03*
X94930000Y-134450000D03*
X94930000Y-136990000D03*
X94930000Y-139530000D03*
X102550000Y-139530000D03*
X102550000Y-136990000D03*
X102550000Y-134450000D03*
X102550000Y-131910000D03*
D22*
X173670000Y-83142000D03*
X168590000Y-83142000D03*
D17*
X171220000Y-46830000D03*
D18*
X176300000Y-46830000D03*
D17*
X172400000Y-69680000D03*
D18*
X172400000Y-64600000D03*
D27*
X193990000Y-120480000D03*
D22*
X193990000Y-117940000D03*
D27*
X193990000Y-134450000D03*
D22*
X193990000Y-131910000D03*
X178750000Y-110320000D03*
X188910000Y-110320000D03*
X188910000Y-125560000D03*
X188910000Y-135720000D03*
D24*
X172380000Y-76030000D03*
D11*
X169880000Y-76030000D03*
D24*
X153350000Y-59500000D03*
D11*
X153350000Y-57000000D03*
D24*
X153350000Y-67120000D03*
D11*
X153350000Y-64620000D03*
D15*
X179070000Y-118745000D03*
X179070000Y-116205000D03*
X153670000Y-116205000D03*
X153670000Y-118745000D03*
D22*
X182560000Y-150960000D03*
X177480000Y-150960000D03*
X68895000Y-59520000D03*
X68895000Y-54440000D03*
X62545000Y-59520000D03*
X62545000Y-54440000D03*
X117155000Y-59520000D03*
X117155000Y-54440000D03*
X110805000Y-59520000D03*
X110805000Y-54440000D03*
X107630000Y-142070000D03*
X112710000Y-142070000D03*
X136840000Y-139530000D03*
X141920000Y-139530000D03*
D17*
X153350000Y-74760000D03*
D18*
X153350000Y-79840000D03*
D22*
X99695000Y-64600000D03*
X89535000Y-64600000D03*
X99695000Y-76030000D03*
X89535000Y-76030000D03*
X99695000Y-72220000D03*
X89535000Y-72220000D03*
X99695000Y-68410000D03*
X89535000Y-68410000D03*
X68580000Y-49530000D03*
X68580000Y-39370000D03*
X64770000Y-49530000D03*
X64770000Y-39370000D03*
X122235000Y-56980000D03*
X132395000Y-56980000D03*
X122235000Y-53170000D03*
X132395000Y-53170000D03*
X86040000Y-131910000D03*
X86040000Y-142070000D03*
X147000000Y-133180000D03*
X147000000Y-143340000D03*
D24*
X93025000Y-60790000D03*
D16*
X95565000Y-60790000D03*
X95565000Y-53170000D03*
X93025000Y-53170000D03*
D24*
X75245000Y-60790000D03*
D16*
X77785000Y-60790000D03*
X77785000Y-53170000D03*
X75245000Y-53170000D03*
D24*
X104455000Y-53170000D03*
D16*
X101915000Y-53170000D03*
X101915000Y-60790000D03*
X104455000Y-60790000D03*
D24*
X86675000Y-53170000D03*
D16*
X84135000Y-53170000D03*
X84135000Y-60790000D03*
X86675000Y-60790000D03*
D13*
X75021480Y-37930000D03*
X86890900Y-37930000D03*
D14*
X85405000Y-44280000D03*
D15*
X84135000Y-46820000D03*
X82865000Y-44280000D03*
X81595000Y-46820000D03*
X80325000Y-44280000D03*
X79055000Y-46820000D03*
X77785000Y-44280000D03*
X76515000Y-46820000D03*
D13*
X92801480Y-37930000D03*
X104670900Y-37930000D03*
D14*
X103185000Y-44280000D03*
D15*
X101915000Y-46820000D03*
X100645000Y-44280000D03*
X99375000Y-46820000D03*
X98105000Y-44280000D03*
X96835000Y-46820000D03*
X95565000Y-44280000D03*
X94295000Y-46820000D03*
D13*
X110581480Y-37930000D03*
X122450900Y-37930000D03*
D14*
X120965000Y-44280000D03*
D15*
X119695000Y-46820000D03*
X118425000Y-44280000D03*
X117155000Y-46820000D03*
X115885000Y-44280000D03*
X114615000Y-46820000D03*
X113345000Y-44280000D03*
X112075000Y-46820000D03*
D13*
X128361480Y-37930000D03*
X140230900Y-37930000D03*
D14*
X138745000Y-44280000D03*
D15*
X137475000Y-46820000D03*
X136205000Y-44280000D03*
X134935000Y-46820000D03*
X133665000Y-44280000D03*
X132395000Y-46820000D03*
X131125000Y-44280000D03*
X129855000Y-46820000D03*
D13*
X97058520Y-157310000D03*
X85189100Y-157310000D03*
D14*
X86675000Y-150960000D03*
D15*
X87945000Y-148420000D03*
X89215000Y-150960000D03*
X90485000Y-148420000D03*
X91755000Y-150960000D03*
X93025000Y-148420000D03*
X94295000Y-150960000D03*
X95565000Y-148420000D03*
D13*
X133253520Y-157310000D03*
X121384100Y-157310000D03*
D14*
X122870000Y-150960000D03*
D15*
X124140000Y-148420000D03*
X125410000Y-150960000D03*
X126680000Y-148420000D03*
X127950000Y-150960000D03*
X129220000Y-148420000D03*
X130490000Y-150960000D03*
X131760000Y-148420000D03*
D28*
X172650000Y-150900000D03*
X172650000Y-156100000D03*
X159450000Y-156100000D03*
X159450000Y-150900000D03*
D29*
X162260000Y-43640000D03*
X162260000Y-36020000D03*
D15*
X69530000Y-69680000D03*
X69530000Y-67140000D03*
X100010000Y-125560000D03*
X97470000Y-125560000D03*
X147000000Y-128100000D03*
X147000000Y-125560000D03*
X92390000Y-110320000D03*
X89850000Y-110320000D03*
X69530000Y-110320000D03*
X66990000Y-110320000D03*
X115250000Y-110320000D03*
X112710000Y-110320000D03*
X115250000Y-95080000D03*
X112710000Y-95080000D03*
X92390000Y-95080000D03*
X89850000Y-95080000D03*
X69530000Y-95080000D03*
X66990000Y-95080000D03*
X69530000Y-79840000D03*
X66990000Y-79840000D03*
X115250000Y-79840000D03*
X112710000Y-79840000D03*
X69530000Y-125560000D03*
X66990000Y-125560000D03*
X120330000Y-69680000D03*
X120330000Y-67140000D03*
X135570000Y-69680000D03*
X135570000Y-67140000D03*
X84770000Y-69680000D03*
X84770000Y-67140000D03*
X91120000Y-139530000D03*
X91120000Y-136990000D03*
X131760000Y-133180000D03*
X131760000Y-135720000D03*
X69530000Y-140800000D03*
X72070000Y-140800000D03*
X72070000Y-125560000D03*
X74610000Y-125560000D03*
X72070000Y-110320000D03*
X74610000Y-110320000D03*
X94930000Y-110320000D03*
X97470000Y-110320000D03*
X117790000Y-110320000D03*
X120330000Y-110320000D03*
X117790000Y-95080000D03*
X120330000Y-95080000D03*
X117790000Y-140800000D03*
X120330000Y-140800000D03*
X72070000Y-95080000D03*
X74610000Y-95080000D03*
X117790000Y-125560000D03*
X120330000Y-125560000D03*
X92390000Y-125560000D03*
X94930000Y-125560000D03*
X69530000Y-74760000D03*
X69530000Y-72220000D03*
X58100000Y-79840000D03*
X60640000Y-79840000D03*
X105090000Y-74760000D03*
X105090000Y-72220000D03*
X120330000Y-74760000D03*
X120330000Y-72220000D03*
D30*
X141920000Y-111590000D03*
D31*
X139380000Y-111590000D03*
X136840000Y-111590000D03*
X134300000Y-111590000D03*
D30*
X141920000Y-93810000D03*
D31*
X139380000Y-93810000D03*
X136840000Y-93810000D03*
X134300000Y-93810000D03*
D32*
X193990000Y-92540000D03*
D33*
X193990000Y-95080000D03*
X193990000Y-97620000D03*
X193990000Y-100160000D03*
X193990000Y-102700000D03*
X193990000Y-105240000D03*
D34*
X193990000Y-52408000D03*
D35*
X193990000Y-54948000D03*
D22*
X187640000Y-46820000D03*
X187640000Y-56980000D03*
D30*
X193990000Y-46820000D03*
X185354000Y-143340000D03*
X57846000Y-94572000D03*
D36*
X129347000Y-60536000D03*
X129220000Y-79840000D03*
X180020000Y-83142000D03*
D37*
X161986000Y-156167000D03*
X176210000Y-156167000D03*
X99695000Y-81796243D03*
X161732000Y-150960000D03*
X144460000Y-123909000D03*
X100010000Y-128862000D03*
X135570000Y-79840000D03*
X144333000Y-116035000D03*
X154493000Y-160103998D03*
X166050000Y-160104000D03*
X150709166Y-154082297D03*
X164145000Y-153373000D03*
X150937000Y-152357006D03*
X162240000Y-152484000D03*
X168336000Y-86698010D03*
X137729000Y-87079000D03*
X137475002Y-63584000D03*
X139507004Y-87841000D03*
X169606000Y-87968000D03*
X139507000Y-62822000D03*
X150556000Y-106256000D03*
X156271000Y-85174000D03*
X86675000Y-85301000D03*
X103439000Y-86444000D03*
X157540998Y-86190000D03*
X69657000Y-87333000D03*
X132776000Y-126703000D03*
X140523000Y-133561000D03*
X140650000Y-76538000D03*
X115249998Y-87714000D03*
X140650000Y-109177000D03*
X140015000Y-141816000D03*
X66990000Y-103721713D03*
X89850000Y-103716000D03*
X108900000Y-133933680D03*
X87310004Y-102954000D03*
X151118464Y-102466724D03*
X63119000Y-101346000D03*
X151953000Y-100795000D03*
X63307000Y-148547000D03*
X62037000Y-118956000D03*
X60640000Y-72220000D03*
X76134000Y-70061000D03*
X84963000Y-122301000D03*
X111440000Y-72220000D03*
X110551000Y-80475000D03*
X85913000Y-80475000D03*
X91120000Y-120226000D03*
X87945000Y-143817685D03*
X130617000Y-143848000D03*
X88326016Y-135466000D03*
X77216000Y-118491000D03*
X104074000Y-118448000D03*
X141920006Y-146134000D03*
X106995000Y-146134000D03*
X77150000Y-145753000D03*
X105598000Y-146007000D03*
X82865000Y-92794000D03*
X71054000Y-49233000D03*
X117790000Y-101901020D03*
X127061000Y-101901020D03*
X129220000Y-119464002D03*
X122743000Y-119464000D03*
X138110000Y-103462000D03*
X122870000Y-103716000D03*
X122870000Y-145372000D03*
X145476000Y-145372000D03*
X139253000Y-118575000D03*
X120330000Y-118702000D03*
X136840000Y-108288000D03*
X120330000Y-108288000D03*
X75869911Y-131188136D03*
X72070000Y-116543000D03*
X97536000Y-117602000D03*
X78359000Y-116586000D03*
X98867000Y-128063020D03*
X81341000Y-51011000D03*
X104327990Y-46566000D03*
X75249669Y-69294337D03*
X94422000Y-55710000D03*
D38*
X187640000Y-46820000D02*
X183810000Y-46820000D01*
X183810000Y-46820000D02*
X181260000Y-49370000D01*
X174425000Y-55830000D02*
X169805000Y-51210000D01*
X169805000Y-51210000D02*
X163260000Y-51210000D01*
X178010000Y-55830000D02*
X174425000Y-55830000D01*
X178010000Y-55830000D02*
X178010000Y-52620000D01*
X178010000Y-52620000D02*
X181260000Y-49370000D01*
X176300000Y-46830000D02*
X178720000Y-46830000D01*
X178720000Y-46830000D02*
X181260000Y-49370000D01*
D39*
X159450000Y-156100000D02*
X161919000Y-156100000D01*
X161919000Y-156100000D02*
X161986000Y-156167000D01*
X172650000Y-156100000D02*
X176143000Y-156100000D01*
X176143000Y-156100000D02*
X176210000Y-156167000D01*
X99695000Y-76030000D02*
X99695000Y-81796243D01*
D38*
X173670000Y-83142000D02*
X172380000Y-81852000D01*
X172380000Y-81852000D02*
X172380000Y-76030000D01*
X172400000Y-69680000D02*
X172400000Y-76010000D01*
X172400000Y-76010000D02*
X172380000Y-76030000D01*
D39*
X99695000Y-72390000D02*
X99695000Y-76200000D01*
X99695000Y-68580000D02*
X99695000Y-72390000D01*
X99695000Y-64770000D02*
X99695000Y-68580000D01*
X182560000Y-128100000D02*
X181290000Y-126830000D01*
X181290000Y-126830000D02*
X178496000Y-126830000D01*
X178496000Y-126830000D02*
X176421000Y-128905000D01*
X176421000Y-128905000D02*
X173990000Y-128905000D01*
X176675000Y-126365000D02*
X177480000Y-125560000D01*
X177480000Y-125560000D02*
X180020000Y-125560000D01*
X173990000Y-126365000D02*
X176675000Y-126365000D01*
X180020000Y-128100000D02*
X181290000Y-129370000D01*
X181290000Y-129370000D02*
X183322000Y-129370000D01*
X183322000Y-129370000D02*
X183910000Y-128782000D01*
X183910000Y-128782000D02*
X183910000Y-124760000D01*
X183910000Y-124760000D02*
X182975000Y-123825000D01*
X182975000Y-123825000D02*
X173990000Y-123825000D01*
X161672000Y-150900000D02*
X161732000Y-150960000D01*
X159450000Y-150900000D02*
X161672000Y-150900000D01*
X177480000Y-150960000D02*
X180020000Y-148420000D01*
X180020000Y-148420000D02*
X180020000Y-135720000D01*
X173990000Y-121285000D02*
X183635000Y-121285000D01*
X183635000Y-121285000D02*
X184710000Y-122360000D01*
X184710000Y-122360000D02*
X184710000Y-131860000D01*
X184710000Y-131860000D02*
X186370000Y-133520000D01*
X186370000Y-133520000D02*
X186370000Y-135720000D01*
X172650000Y-150900000D02*
X177420000Y-150900000D01*
X177420000Y-150900000D02*
X177480000Y-150960000D01*
X186370000Y-135720000D02*
X180020000Y-135720000D01*
X180020000Y-135720000D02*
X180020000Y-130640000D01*
X173640750Y-121285000D02*
X173990000Y-121285000D01*
X172970000Y-151070000D02*
X171220000Y-151070000D01*
X144460000Y-124474685D02*
X144460000Y-123909000D01*
X144460000Y-126830000D02*
X144460000Y-124474685D01*
X143190000Y-128100000D02*
X144460000Y-126830000D01*
X144333000Y-123782000D02*
X144460000Y-123909000D01*
X144333000Y-116035000D02*
X144333000Y-123782000D01*
X100010000Y-129427685D02*
X100010000Y-128862000D01*
X102550000Y-134450000D02*
X100010000Y-131910000D01*
X100010000Y-125560000D02*
X100010000Y-128862000D01*
X100010000Y-131910000D02*
X100010000Y-129427685D01*
X115250000Y-95080000D02*
X115250000Y-98890000D01*
X135570000Y-69680000D02*
X135570000Y-79840000D01*
X144333000Y-97572820D02*
X144333000Y-116035000D01*
X141920000Y-95159820D02*
X144333000Y-97572820D01*
X141920000Y-93810000D02*
X141920000Y-95159820D01*
X69530000Y-69680000D02*
X68260000Y-70950000D01*
X68260000Y-78570000D02*
X69530000Y-79840000D01*
X68260000Y-70950000D02*
X68260000Y-78570000D01*
X141920000Y-93810000D02*
X141920000Y-91270000D01*
X141920000Y-91270000D02*
X143190000Y-90000000D01*
X143190000Y-90000000D02*
X143190000Y-79840000D01*
X116520000Y-69680000D02*
X115250000Y-70950000D01*
X115250000Y-70950000D02*
X115250000Y-79840000D01*
X92390000Y-98890000D02*
X92390000Y-95080000D01*
X115250000Y-79840000D02*
X115250000Y-83650000D01*
X115250000Y-114130000D02*
X115250000Y-110320000D01*
X115250000Y-125560000D02*
X115250000Y-129370000D01*
X92390000Y-110320000D02*
X92390000Y-114130000D01*
X69530000Y-125560000D02*
X69530000Y-129370000D01*
X69530000Y-110320000D02*
X69530000Y-114130000D01*
X69530000Y-95080000D02*
X69530000Y-98890000D01*
X69530000Y-79840000D02*
X69530000Y-83650000D01*
D38*
X153350000Y-79840000D02*
X143190000Y-79840000D01*
D39*
X153927315Y-160103998D02*
X154493000Y-160103998D01*
X74355998Y-160103998D02*
X153927315Y-160103998D01*
X73975000Y-159723000D02*
X74355998Y-160103998D01*
X73975000Y-150960000D02*
X73975000Y-159723000D01*
X166050000Y-160104000D02*
X166050000Y-149195750D01*
X166050000Y-149195750D02*
X173640750Y-141605000D01*
X173640750Y-141605000D02*
X173990000Y-141605000D01*
X94877297Y-154082297D02*
X150143481Y-154082297D01*
X91755000Y-150960000D02*
X94877297Y-154082297D01*
X150143481Y-154082297D02*
X150709166Y-154082297D01*
X164145000Y-153373000D02*
X164145000Y-148560750D01*
X164145000Y-148560750D02*
X173640750Y-139065000D01*
X173640750Y-139065000D02*
X173990000Y-139065000D01*
X109535000Y-150960000D02*
X111712999Y-153137999D01*
X111712999Y-153137999D02*
X150156007Y-153137999D01*
X150537001Y-152757005D02*
X150937000Y-152357006D01*
X150156007Y-153137999D02*
X150537001Y-152757005D01*
X162639999Y-152084001D02*
X162240000Y-152484000D01*
X162639999Y-147525751D02*
X162639999Y-152084001D01*
X173640750Y-136525000D02*
X162639999Y-147525751D01*
X173990000Y-136525000D02*
X173640750Y-136525000D01*
X168336000Y-87263695D02*
X168336000Y-86698010D01*
X168336000Y-128680250D02*
X168336000Y-87263695D01*
X173990000Y-133985000D02*
X173640750Y-133985000D01*
X173640750Y-133985000D02*
X168336000Y-128680250D01*
X137475002Y-86825002D02*
X137729000Y-87079000D01*
X137475002Y-63584000D02*
X137475002Y-86825002D01*
X139507000Y-87840996D02*
X139507004Y-87841000D01*
X139507000Y-62822000D02*
X139507000Y-87840996D01*
X169606000Y-88533685D02*
X169606000Y-87968000D01*
X169606000Y-127410250D02*
X169606000Y-88533685D01*
X173640750Y-131445000D02*
X169606000Y-127410250D01*
X173990000Y-131445000D02*
X173640750Y-131445000D01*
X72705000Y-148420000D02*
X72705000Y-160485000D01*
X155890000Y-160231000D02*
X155890000Y-138641000D01*
X72705000Y-160485000D02*
X73086000Y-160866000D01*
X73086000Y-160866000D02*
X155255000Y-160866000D01*
X155255000Y-160866000D02*
X155890000Y-160231000D01*
X161267000Y-100965000D02*
X158750000Y-100965000D01*
X155890000Y-138641000D02*
X156779000Y-137752000D01*
X156779000Y-137752000D02*
X160716000Y-137752000D01*
X160716000Y-137752000D02*
X162240000Y-136228000D01*
X162240000Y-136228000D02*
X162240000Y-101938000D01*
X162240000Y-101938000D02*
X161267000Y-100965000D01*
X161224000Y-134450000D02*
X160462000Y-135212000D01*
X151058703Y-154810498D02*
X91922498Y-154810498D01*
X91922498Y-154810498D02*
X90485000Y-153373000D01*
X160462000Y-135212000D02*
X156779000Y-135212000D01*
X159099250Y-103505000D02*
X161224000Y-105629750D01*
X90485000Y-149481466D02*
X90485000Y-148420000D01*
X161224000Y-105629750D02*
X161224000Y-134450000D01*
X156779000Y-135212000D02*
X153731000Y-138260000D01*
X153731000Y-152138201D02*
X151058703Y-154810498D01*
X90485000Y-153373000D02*
X90485000Y-149481466D01*
X153731000Y-138260000D02*
X153731000Y-152138201D01*
X158750000Y-103505000D02*
X159099250Y-103505000D01*
X108265000Y-148420000D02*
X109535000Y-149690000D01*
X109535000Y-149690000D02*
X115250000Y-149690000D01*
X115250000Y-149690000D02*
X118171000Y-152611000D01*
X118171000Y-152611000D02*
X149286000Y-152611000D01*
X149286000Y-152611000D02*
X151064000Y-150833000D01*
X151064000Y-150833000D02*
X151064000Y-106764000D01*
X151064000Y-106764000D02*
X150556000Y-106256000D01*
X156271000Y-85174000D02*
X156271000Y-96295250D01*
X156271000Y-96295250D02*
X158400750Y-98425000D01*
X158400750Y-98425000D02*
X158750000Y-98425000D01*
X158750000Y-98425000D02*
X159099250Y-98425000D01*
X86675000Y-85301000D02*
X86675000Y-60790000D01*
X103439000Y-85878315D02*
X103439000Y-86444000D01*
X103439000Y-61806000D02*
X103439000Y-85878315D01*
X104455000Y-60790000D02*
X103439000Y-61806000D01*
X157140999Y-86589999D02*
X157540998Y-86190000D01*
X157140999Y-94625249D02*
X157140999Y-86589999D01*
X158400750Y-95885000D02*
X157140999Y-94625249D01*
X158750000Y-95885000D02*
X158400750Y-95885000D01*
X134935000Y-46820000D02*
X134935000Y-49106000D01*
X134935000Y-49106000D02*
X137602000Y-51773000D01*
X150048000Y-77554000D02*
X154112000Y-77554000D01*
X137602000Y-51773000D02*
X137602000Y-57869000D01*
X154112000Y-77554000D02*
X155001000Y-78443000D01*
X137602000Y-57869000D02*
X138364000Y-58631000D01*
X138364000Y-58631000D02*
X146365000Y-58631000D01*
X146365000Y-58631000D02*
X148016000Y-60282000D01*
X148016000Y-60282000D02*
X148016000Y-75522000D01*
X148016000Y-75522000D02*
X150048000Y-77554000D01*
X155001000Y-78443000D02*
X155001000Y-110265250D01*
X155001000Y-110265250D02*
X158400750Y-113665000D01*
X158400750Y-113665000D02*
X158750000Y-113665000D01*
X69530000Y-91270000D02*
X69530000Y-87460000D01*
X69530000Y-87460000D02*
X69657000Y-87333000D01*
X132776000Y-127268685D02*
X132776000Y-126703000D01*
X132776000Y-131910000D02*
X132776000Y-127268685D01*
X131633000Y-133053000D02*
X132776000Y-131910000D01*
X140123001Y-133960999D02*
X140523000Y-133561000D01*
X140015000Y-141816000D02*
X140015000Y-134069000D01*
X140650000Y-133434000D02*
X140523000Y-133561000D01*
X140015000Y-134069000D02*
X140123001Y-133960999D01*
X140650000Y-109177000D02*
X140650000Y-133434000D01*
X140650000Y-77103685D02*
X140650000Y-76538000D01*
X140650000Y-91190180D02*
X140650000Y-77103685D01*
X139380000Y-92460180D02*
X140650000Y-91190180D01*
X140650000Y-75972315D02*
X140650000Y-76538000D01*
X140650000Y-68410000D02*
X140650000Y-75972315D01*
X143190000Y-65870000D02*
X140650000Y-68410000D01*
X139380000Y-93810000D02*
X139380000Y-92460180D01*
X115250000Y-88730000D02*
X115249998Y-88729998D01*
X115249998Y-88729998D02*
X115249998Y-87714000D01*
X115250000Y-91270000D02*
X115250000Y-88730000D01*
X139380000Y-107907000D02*
X140650000Y-109177000D01*
X139380000Y-93810000D02*
X139380000Y-107907000D01*
X117790000Y-125560000D02*
X115250000Y-123020000D01*
X115250000Y-123020000D02*
X115250000Y-121750000D01*
X58100000Y-79840000D02*
X58100000Y-74760000D01*
X69530000Y-140800000D02*
X69530000Y-136990000D01*
X92390000Y-125560000D02*
X92390000Y-121750000D01*
D38*
X143190000Y-60790000D02*
X143190000Y-65870000D01*
D39*
X177099000Y-107526000D02*
X180274000Y-107526000D01*
X180274000Y-107526000D02*
X182560000Y-105240000D01*
X176040000Y-108585000D02*
X177099000Y-107526000D01*
X173990000Y-108585000D02*
X176040000Y-108585000D01*
X173990000Y-106045000D02*
X176294000Y-106045000D01*
X176294000Y-106045000D02*
X177099000Y-105240000D01*
X177099000Y-105240000D02*
X178750000Y-105240000D01*
X66990000Y-121750000D02*
X66990000Y-116012000D01*
X66990000Y-116012000D02*
X65720000Y-114742000D01*
X65720000Y-114742000D02*
X65720000Y-107780000D01*
X65720000Y-107780000D02*
X66990000Y-106510000D01*
X66990000Y-136990000D02*
X66990000Y-131402000D01*
X66990000Y-131402000D02*
X65720000Y-130132000D01*
X65720000Y-130132000D02*
X65720000Y-124151370D01*
X65720000Y-124151370D02*
X66990000Y-122881370D01*
X66990000Y-122881370D02*
X66990000Y-121750000D01*
X66990000Y-103721713D02*
X66990000Y-100899000D01*
X66990000Y-100899000D02*
X65786000Y-99695000D01*
X65786000Y-99695000D02*
X65786000Y-92474000D01*
X65786000Y-92474000D02*
X66990000Y-91270000D01*
X66990000Y-106510000D02*
X66990000Y-103721713D01*
X89850000Y-106510000D02*
X89850000Y-103716000D01*
X112710000Y-106510000D02*
X111440000Y-105240000D01*
X111440000Y-105240000D02*
X111440000Y-92540000D01*
X111440000Y-92540000D02*
X112710000Y-91270000D01*
X112710000Y-136990000D02*
X111440000Y-135720000D01*
X111440000Y-135720000D02*
X111440000Y-123020000D01*
X111440000Y-123020000D02*
X112710000Y-121750000D01*
X112710000Y-106510000D02*
X111440000Y-107780000D01*
X111440000Y-120480000D02*
X112710000Y-121750000D01*
X111440000Y-107780000D02*
X111440000Y-120480000D01*
X89850000Y-121750000D02*
X88580000Y-120480000D01*
X88580000Y-120480000D02*
X88580000Y-107780000D01*
X88580000Y-107780000D02*
X89850000Y-106510000D01*
X108900000Y-123020000D02*
X108900000Y-133933680D01*
X108900000Y-133933680D02*
X108900000Y-135720000D01*
X110170000Y-121750000D02*
X108900000Y-123020000D01*
X108900000Y-135720000D02*
X110170000Y-136990000D01*
X110170000Y-106510000D02*
X108900000Y-105240000D01*
X108900000Y-105240000D02*
X108900000Y-92540000D01*
X108900000Y-92540000D02*
X110170000Y-91270000D01*
X110170000Y-121750000D02*
X108900000Y-120480000D01*
X108900000Y-120480000D02*
X108900000Y-107780000D01*
X108900000Y-107780000D02*
X110170000Y-106510000D01*
X64450000Y-129370000D02*
X64450000Y-130501370D01*
X64450000Y-130501370D02*
X65720000Y-131771370D01*
X156652000Y-140813750D02*
X158400750Y-139065000D01*
X65720000Y-131771370D02*
X65720000Y-137752000D01*
X65720000Y-137752000D02*
X64958006Y-138513994D01*
X64958006Y-138513994D02*
X64958006Y-160993006D01*
X64958006Y-160993006D02*
X65466000Y-161501000D01*
X65466000Y-161501000D02*
X155636000Y-161501000D01*
X155636000Y-161501000D02*
X156652000Y-160485000D01*
X156652000Y-160485000D02*
X156652000Y-140813750D01*
X158400750Y-139065000D02*
X158750000Y-139065000D01*
X64450000Y-129370000D02*
X64450000Y-123655000D01*
X64450000Y-123655000D02*
X65720000Y-122385000D01*
X65720000Y-122385000D02*
X65720000Y-116901000D01*
X65720000Y-116901000D02*
X64450000Y-115631000D01*
X64450000Y-115631000D02*
X64450000Y-114130000D01*
X64450000Y-136990000D02*
X64450000Y-161755000D01*
X64450000Y-161755000D02*
X64831000Y-162136000D01*
X64831000Y-162136000D02*
X156652000Y-162136000D01*
X156652000Y-162136000D02*
X157400180Y-161387820D01*
X157400180Y-161387820D02*
X157400180Y-143955390D01*
X158750000Y-142605570D02*
X158750000Y-141605000D01*
X157400180Y-143955390D02*
X158750000Y-142605570D01*
X64450000Y-136990000D02*
X63180000Y-135720000D01*
X63180000Y-135720000D02*
X63180000Y-123020000D01*
X63180000Y-123020000D02*
X64450000Y-121750000D01*
X87310000Y-106510000D02*
X86106000Y-107714000D01*
X86106000Y-107714000D02*
X86106000Y-120546000D01*
X86106000Y-120546000D02*
X87310000Y-121750000D01*
X87310000Y-102954004D02*
X87310004Y-102954000D01*
X87310000Y-106510000D02*
X87310000Y-102954004D01*
X151518463Y-127102713D02*
X151518463Y-102866723D01*
X158400750Y-133985000D02*
X151518463Y-127102713D01*
X158750000Y-133985000D02*
X158400750Y-133985000D01*
X151518463Y-102866723D02*
X151118464Y-102466724D01*
X63119000Y-100780315D02*
X63119000Y-101346000D01*
X64450000Y-91270000D02*
X63119000Y-92601000D01*
X63518999Y-101745999D02*
X63119000Y-101346000D01*
X63119000Y-92601000D02*
X63119000Y-100780315D01*
X64450000Y-102677000D02*
X63518999Y-101745999D01*
X64450000Y-106510000D02*
X64450000Y-102677000D01*
X152352999Y-101194999D02*
X151953000Y-100795000D01*
X152352999Y-125397249D02*
X152352999Y-101194999D01*
X158750000Y-131445000D02*
X158400750Y-131445000D01*
X158400750Y-131445000D02*
X152352999Y-125397249D01*
X62907001Y-148147001D02*
X63307000Y-148547000D01*
X62037000Y-147277000D02*
X62907001Y-148147001D01*
X62037000Y-118956000D02*
X62037000Y-147277000D01*
X62037000Y-118390315D02*
X62037000Y-118956000D01*
X62037000Y-73617000D02*
X62037000Y-118390315D01*
X60640000Y-72220000D02*
X62037000Y-73617000D01*
X71435000Y-150960000D02*
X71435000Y-146896000D01*
X71435000Y-146896000D02*
X73340000Y-144991000D01*
X73340000Y-144991000D02*
X73340000Y-132672000D01*
X73340000Y-132672000D02*
X70800000Y-130132000D01*
X70800000Y-130132000D02*
X70800000Y-105875000D01*
X70800000Y-105875000D02*
X73340000Y-103335000D01*
X73340000Y-103335000D02*
X73340000Y-92540000D01*
X73340000Y-92540000D02*
X72070000Y-91270000D01*
X75245000Y-148420000D02*
X75880000Y-147785000D01*
X75880000Y-147785000D02*
X75880000Y-132672000D01*
X75880000Y-132672000D02*
X73340000Y-130132000D01*
X73340000Y-130132000D02*
X73340000Y-109379998D01*
X72070000Y-108109998D02*
X72070000Y-106510000D01*
X73340000Y-109379998D02*
X72070000Y-108109998D01*
X73340000Y-69680000D02*
X74483000Y-69680000D01*
X74483000Y-69680000D02*
X74991000Y-70188000D01*
X74991000Y-70188000D02*
X75441315Y-70188000D01*
X75441315Y-70188000D02*
X75568315Y-70061000D01*
X75568315Y-70061000D02*
X76134000Y-70061000D01*
X76134000Y-70626685D02*
X76134000Y-70061000D01*
X76134000Y-76792000D02*
X76134000Y-70626685D01*
X70800000Y-84666000D02*
X70800000Y-82126000D01*
X68260000Y-87206000D02*
X70800000Y-84666000D01*
X70800000Y-82126000D02*
X76134000Y-76792000D01*
X68260000Y-133180000D02*
X68260000Y-87206000D01*
X72070000Y-136990000D02*
X68260000Y-133180000D01*
X70165000Y-148420000D02*
X70165000Y-146007000D01*
X70165000Y-146007000D02*
X70800000Y-145372000D01*
X70800000Y-145372000D02*
X70800000Y-138260000D01*
X70800000Y-138260000D02*
X72070000Y-136990000D01*
X84963000Y-81425000D02*
X84963000Y-121735315D01*
X85913000Y-80475000D02*
X84963000Y-81425000D01*
X87564000Y-124902000D02*
X85362999Y-122700999D01*
X86675000Y-143721000D02*
X87564000Y-142832000D01*
X84963000Y-121735315D02*
X84963000Y-122301000D01*
X86675000Y-150960000D02*
X86675000Y-143721000D01*
X87564000Y-142832000D02*
X87564000Y-124902000D01*
X85362999Y-122700999D02*
X84963000Y-122301000D01*
X110551000Y-80475000D02*
X110551000Y-73109000D01*
X110551000Y-73109000D02*
X111440000Y-72220000D01*
X91120000Y-122893000D02*
X91120000Y-120791685D01*
X89215000Y-150960000D02*
X89215000Y-124798000D01*
X89215000Y-124798000D02*
X91120000Y-122893000D01*
X91120000Y-120791685D02*
X91120000Y-120226000D01*
X93025000Y-148420000D02*
X93025000Y-147358534D01*
X93025000Y-147358534D02*
X93660000Y-146723534D01*
X93660000Y-107780000D02*
X94930000Y-106510000D01*
X93660000Y-146723534D02*
X93660000Y-107780000D01*
X131760000Y-72220000D02*
X130490000Y-73490000D01*
X130490000Y-73490000D02*
X130490000Y-143721000D01*
X130490000Y-143721000D02*
X130617000Y-143848000D01*
X87945000Y-148420000D02*
X87945000Y-143817685D01*
X87945000Y-143817685D02*
X87945000Y-143213000D01*
X87945000Y-143213000D02*
X88326016Y-142831984D01*
X88326016Y-142831984D02*
X88326016Y-135466000D01*
X77150000Y-121750000D02*
X77150000Y-118557000D01*
X77150000Y-118557000D02*
X77216000Y-118491000D01*
X104455000Y-150960000D02*
X104455000Y-118829000D01*
X104455000Y-118829000D02*
X104074000Y-118448000D01*
X141920000Y-146133994D02*
X141920006Y-146134000D01*
X141920000Y-139530000D02*
X141920000Y-146133994D01*
X106995000Y-150960000D02*
X106995000Y-146134000D01*
D38*
X142240000Y-139700000D02*
X141605000Y-139700000D01*
D39*
X110805000Y-148420000D02*
X110805000Y-143975000D01*
X110805000Y-143975000D02*
X112710000Y-142070000D01*
X77150000Y-145753000D02*
X77150000Y-136990000D01*
X105725000Y-148420000D02*
X105725000Y-146134000D01*
X105725000Y-146134000D02*
X105598000Y-146007000D01*
X82865000Y-44280000D02*
X82865000Y-92794000D01*
X66101000Y-42121000D02*
X62545000Y-45677000D01*
X62545000Y-45677000D02*
X62545000Y-54440000D01*
X84246570Y-42121000D02*
X66101000Y-42121000D01*
X85405000Y-44280000D02*
X85405000Y-43279430D01*
X85405000Y-43279430D02*
X84246570Y-42121000D01*
X70800000Y-52535000D02*
X70800000Y-49487000D01*
X70800000Y-49487000D02*
X71054000Y-49233000D01*
X68895000Y-54440000D02*
X70800000Y-52535000D01*
X79055000Y-46820000D02*
X79055000Y-79967000D01*
X78420000Y-105240000D02*
X77150000Y-106510000D01*
X79055000Y-79967000D02*
X78420000Y-80602000D01*
X78420000Y-80602000D02*
X78420000Y-105240000D01*
X100645000Y-44280000D02*
X100645000Y-63076000D01*
X100645000Y-63076000D02*
X101280000Y-63711000D01*
X101280000Y-63711000D02*
X101280000Y-120480000D01*
X101280000Y-120480000D02*
X100010000Y-121750000D01*
X110805000Y-54440000D02*
X110805000Y-50899430D01*
X110805000Y-50899430D02*
X104185570Y-44280000D01*
X104185570Y-44280000D02*
X103185000Y-44280000D01*
X96835000Y-46820000D02*
X96835000Y-95819000D01*
X96835000Y-95819000D02*
X98867000Y-97851000D01*
X98867000Y-97851000D02*
X98867000Y-105367000D01*
X98867000Y-105367000D02*
X100010000Y-106510000D01*
X127061000Y-101335335D02*
X127061000Y-101901020D01*
X127061000Y-51376570D02*
X127061000Y-101335335D01*
X120965000Y-44280000D02*
X120965000Y-45280570D01*
X120965000Y-45280570D02*
X127061000Y-51376570D01*
X117790000Y-106510000D02*
X117790000Y-101901020D01*
X119695000Y-46820000D02*
X119695000Y-63076000D01*
X119695000Y-63076000D02*
X118679000Y-64092000D01*
X119568000Y-111844000D02*
X119060000Y-112352000D01*
X118679000Y-64092000D02*
X118679000Y-75395000D01*
X118679000Y-75395000D02*
X121600000Y-78316000D01*
X121600000Y-78316000D02*
X121600000Y-111082000D01*
X119060000Y-112352000D02*
X119060000Y-135720000D01*
X121600000Y-111082000D02*
X120838000Y-111844000D01*
X120838000Y-111844000D02*
X119568000Y-111844000D01*
X119060000Y-135720000D02*
X117790000Y-136990000D01*
X117155000Y-46820000D02*
X118679000Y-48344000D01*
X118679000Y-48344000D02*
X118679000Y-63203000D01*
X118679000Y-63203000D02*
X117917000Y-63965000D01*
X117917000Y-63965000D02*
X117917000Y-81110000D01*
X117917000Y-81110000D02*
X116520000Y-82507000D01*
X116520000Y-82507000D02*
X116520000Y-85174000D01*
X116520000Y-85174000D02*
X117917000Y-86571000D01*
X117917000Y-91143000D02*
X117790000Y-91270000D01*
X117917000Y-86571000D02*
X117917000Y-91143000D01*
X115885000Y-44280000D02*
X115885000Y-47836000D01*
X115504000Y-66251000D02*
X113980000Y-67775000D01*
X115885000Y-47836000D02*
X115504000Y-48217000D01*
X115504000Y-48217000D02*
X115504000Y-66251000D01*
X113980000Y-67775000D02*
X113980000Y-84412000D01*
X113980000Y-84412000D02*
X116520000Y-86952000D01*
X116520000Y-86952000D02*
X116520000Y-120480000D01*
X116520000Y-120480000D02*
X117790000Y-121750000D01*
X125410000Y-150960000D02*
X125410000Y-138655002D01*
X124140000Y-92540000D02*
X122870000Y-91270000D01*
X125410000Y-138655002D02*
X124140000Y-137385002D01*
X124140000Y-137385002D02*
X124140000Y-92540000D01*
X129220000Y-148420000D02*
X129220000Y-119464002D01*
X122743000Y-119464000D02*
X122743000Y-121623000D01*
X122743000Y-121623000D02*
X122870000Y-121750000D01*
X138110000Y-104027685D02*
X138110000Y-103462000D01*
X138110000Y-138133000D02*
X138110000Y-104027685D01*
X138338587Y-138361587D02*
X138110000Y-138133000D01*
X140269000Y-149690000D02*
X138338587Y-147759587D01*
X143190000Y-150960000D02*
X141920000Y-149690000D01*
X141920000Y-149690000D02*
X140269000Y-149690000D01*
X138338587Y-147759587D02*
X138338587Y-138361587D01*
X122870000Y-104097000D02*
X122870000Y-103716000D01*
X122870000Y-106510000D02*
X122870000Y-104097000D01*
X122870000Y-136990000D02*
X122870000Y-145372000D01*
X147000000Y-146896000D02*
X145875999Y-145771999D01*
X147000000Y-148420000D02*
X147000000Y-146896000D01*
X145875999Y-145771999D02*
X145476000Y-145372000D01*
X133665000Y-44280000D02*
X133665000Y-49487000D01*
X133665000Y-49487000D02*
X134046000Y-49868000D01*
X134046000Y-49868000D02*
X134046000Y-90762000D01*
X134046000Y-90762000D02*
X132776000Y-92032000D01*
X132776000Y-92032000D02*
X132776000Y-106002000D01*
X134300000Y-107526000D02*
X134300000Y-111590000D01*
X132776000Y-106002000D02*
X134300000Y-107526000D01*
X120330000Y-121750000D02*
X120330000Y-122881370D01*
X120330000Y-122881370D02*
X121539000Y-124090370D01*
X121539000Y-124090370D02*
X121539000Y-135781000D01*
X121539000Y-135781000D02*
X120330000Y-136990000D01*
X139253000Y-118575000D02*
X139253000Y-111717000D01*
X139253000Y-111717000D02*
X139380000Y-111590000D01*
X120330000Y-121750000D02*
X120330000Y-118702000D01*
X120330000Y-91270000D02*
X120330000Y-92401370D01*
X120330000Y-92401370D02*
X119060000Y-93671370D01*
X119060000Y-93671370D02*
X119060000Y-105240000D01*
X119060000Y-105240000D02*
X120330000Y-106510000D01*
X136840000Y-108288000D02*
X136840000Y-111590000D01*
X120330000Y-106510000D02*
X120330000Y-108288000D01*
X74610000Y-106510000D02*
X74610000Y-107907000D01*
X74610000Y-107907000D02*
X75869911Y-109166911D01*
X75869911Y-109166911D02*
X75869911Y-131188136D01*
X72070000Y-114130000D02*
X72070000Y-116543000D01*
X97470000Y-121750000D02*
X98806000Y-123086000D01*
X98806000Y-123086000D02*
X98806000Y-128016000D01*
X98806000Y-128016000D02*
X98806000Y-127436335D01*
X97470000Y-117668000D02*
X97536000Y-117602000D01*
X97470000Y-121750000D02*
X97470000Y-117668000D01*
X78359000Y-116020315D02*
X78359000Y-116586000D01*
X78359000Y-110005000D02*
X78359000Y-116020315D01*
X75880000Y-107526000D02*
X78359000Y-110005000D01*
X74610000Y-91270000D02*
X75880000Y-92540000D01*
X75880000Y-92540000D02*
X75880000Y-107526000D01*
X193990000Y-100160000D02*
X187640000Y-100160000D01*
X187640000Y-100160000D02*
X182560000Y-95080000D01*
X189926000Y-102700000D02*
X190055218Y-102700000D01*
X190055218Y-102700000D02*
X193990000Y-102700000D01*
X178750000Y-95080000D02*
X186370000Y-102700000D01*
X186370000Y-102700000D02*
X190055218Y-102700000D01*
D38*
X176260000Y-35830000D02*
X162450000Y-35830000D01*
X162450000Y-35830000D02*
X162260000Y-36020000D01*
X163260000Y-58830000D02*
X157380000Y-58830000D01*
X157380000Y-58830000D02*
X155550000Y-57000000D01*
X155550000Y-57000000D02*
X153350000Y-57000000D01*
X148290000Y-57000000D02*
X147000000Y-55710000D01*
X147000000Y-55710000D02*
X143190000Y-55710000D01*
X153350000Y-57000000D02*
X148290000Y-57000000D01*
X169170000Y-63910000D02*
X169860000Y-64600000D01*
X169860000Y-64600000D02*
X172400000Y-64600000D01*
X163260000Y-63910000D02*
X169170000Y-63910000D01*
X153350000Y-67120000D02*
X153350000Y-74760000D01*
X160390000Y-63910000D02*
X157180000Y-67120000D01*
X157180000Y-67120000D02*
X153350000Y-67120000D01*
X163260000Y-63910000D02*
X160390000Y-63910000D01*
D39*
X190942000Y-147912000D02*
X187894000Y-150960000D01*
X187894000Y-150960000D02*
X182560000Y-150960000D01*
X190942000Y-109300000D02*
X190942000Y-147912000D01*
X193990000Y-105240000D02*
X193990000Y-106252000D01*
X193990000Y-106252000D02*
X190942000Y-109300000D01*
X68580000Y-49530000D02*
X67210000Y-50900000D01*
X67210000Y-50900000D02*
X67210000Y-57835000D01*
X67210000Y-57835000D02*
X68895000Y-59520000D01*
X71308000Y-70188000D02*
X71308000Y-61933000D01*
X71308000Y-61933000D02*
X68895000Y-59520000D01*
X73340000Y-72220000D02*
X71308000Y-70188000D01*
X62545000Y-59520000D02*
X62545000Y-67775000D01*
X62545000Y-67775000D02*
X58100000Y-72220000D01*
X64770000Y-49530000D02*
X64770000Y-57295000D01*
X64770000Y-57295000D02*
X62545000Y-59520000D01*
X124140000Y-72220000D02*
X122235000Y-70315000D01*
X122235000Y-70315000D02*
X122235000Y-56980000D01*
X108900000Y-72220000D02*
X110805000Y-70315000D01*
X110805000Y-70315000D02*
X110805000Y-59520000D01*
X136840000Y-139530000D02*
X136840000Y-131910000D01*
X136840000Y-131910000D02*
X135570000Y-130640000D01*
D38*
X162260000Y-43640000D02*
X165450000Y-46830000D01*
X165450000Y-46830000D02*
X171220000Y-46830000D01*
D39*
X173990000Y-95885000D02*
X174339250Y-95885000D01*
X174339250Y-95885000D02*
X175956000Y-94268250D01*
X175956000Y-94268250D02*
X176894750Y-94268250D01*
X176894750Y-94268250D02*
X186323000Y-84840000D01*
X186323000Y-84840000D02*
X193990000Y-84840000D01*
X173990000Y-93345000D02*
X176548000Y-93345000D01*
X176548000Y-93345000D02*
X185989000Y-83904000D01*
X185989000Y-83904000D02*
X189926000Y-83904000D01*
X189926000Y-83904000D02*
X193990000Y-79840000D01*
X81595000Y-46820000D02*
X81595000Y-50757000D01*
X81595000Y-50757000D02*
X81341000Y-51011000D01*
X104327990Y-47131685D02*
X104327990Y-46566000D01*
X101915000Y-53170000D02*
X104327990Y-50757010D01*
X104327990Y-50757010D02*
X104327990Y-47131685D01*
X89535000Y-64600000D02*
X93025000Y-61110000D01*
X93025000Y-61110000D02*
X93025000Y-60790000D01*
X75245000Y-69289668D02*
X75249669Y-69294337D01*
X75245000Y-60790000D02*
X75245000Y-69289668D01*
X89535000Y-72220000D02*
X94422000Y-67333000D01*
X94422000Y-67333000D02*
X94422000Y-55710000D01*
X87945000Y-56345000D02*
X86675000Y-55075000D01*
X86675000Y-55075000D02*
X86675000Y-53170000D01*
X89535000Y-68410000D02*
X87945000Y-66820000D01*
X87945000Y-66820000D02*
X87945000Y-56345000D01*
D38*
X187640000Y-56980000D02*
X189672000Y-54948000D01*
X189672000Y-54948000D02*
X193990000Y-54948000D01*
M02*
